Oligo	TargetCounts	BackgroundCounts	NormalizationFactor
A	33.98%	33.99%	1.000
C	16.02%	16.01%	1.001
G	16.02%	16.01%	1.001
T	33.98%	33.99%	1.000
AA	13.13%	13.40%	0.980
CA	5.85%	5.79%	1.011
GA	5.77%	5.82%	0.991
TA	9.23%	8.99%	1.027
AC	5.17%	5.05%	1.024
CC	2.86%	2.82%	1.011
GC	2.23%	2.32%	0.963
TC	5.77%	5.82%	0.991
AG	5.20%	5.25%	0.989
CG	2.11%	2.14%	0.988
GG	2.86%	2.82%	1.011
TG	5.85%	5.79%	1.011
AT	10.48%	10.29%	1.018
CT	5.20%	5.25%	0.989
GT	5.17%	5.05%	1.024
TT	13.13%	13.40%	0.980
AAA	5.60%	5.67%	0.988
CAA	2.27%	2.33%	0.972
GAA	2.04%	2.16%	0.944
TAA	3.22%	3.23%	0.995
ACA	1.99%	1.95%	1.021
CCA	1.18%	1.14%	1.035
GCA	0.77%	0.77%	1.004
TCA	1.92%	1.94%	0.990
AGA	2.10%	2.16%	0.972
CGA	0.74%	0.74%	0.994
GGA	1.00%	0.97%	1.034
TGA	1.92%	1.94%	0.990
ATA	3.30%	3.14%	1.049
CTA	1.35%	1.34%	1.009
GTA	1.37%	1.28%	1.069
TTA	3.22%	3.23%	0.995
AAC	1.86%	1.99%	0.937
CAC	1.09%	0.96%	1.126
GAC	0.86%	0.82%	1.043
TAC	1.37%	1.28%	1.069
ACC	0.91%	0.92%	0.984
CCC	0.51%	0.48%	1.071
GCC	0.43%	0.45%	0.955
TCC	1.00%	0.97%	1.034
AGC	0.75%	0.80%	0.938
CGC	0.28%	0.29%	0.943
GGC	0.43%	0.45%	0.955
TGC	0.77%	0.77%	1.004
ATC	1.73%	1.70%	1.019
CTC	1.13%	1.13%	1.003
GTC	0.86%	0.82%	1.043
TTC	2.04%	2.16%	0.944
AAG	2.04%	2.05%	0.995
CAG	0.67%	0.74%	0.912
GAG	1.13%	1.13%	1.003
TAG	1.35%	1.34%	1.009
ACG	0.71%	0.68%	1.047
CCG	0.38%	0.42%	0.918
GCG	0.28%	0.29%	0.943
TCG	0.74%	0.74%	0.994
AGG	0.78%	0.79%	0.988
CGG	0.38%	0.42%	0.918
GGG	0.51%	0.48%	1.071
TGG	1.18%	1.14%	1.035
ATG	1.83%	1.76%	1.040
CTG	0.67%	0.74%	0.912
GTG	1.09%	0.96%	1.126
TTG	2.27%	2.33%	0.972
AAT	3.63%	3.69%	0.982
CAT	1.83%	1.76%	1.040
GAT	1.73%	1.70%	1.019
TAT	3.30%	3.14%	1.049
ACT	1.56%	1.50%	1.042
CCT	0.78%	0.79%	0.988
GCT	0.75%	0.80%	0.938
TCT	2.10%	2.16%	0.972
AGT	1.56%	1.50%	1.042
CGT	0.71%	0.68%	1.047
GGT	0.91%	0.92%	0.984
TGT	1.99%	1.95%	1.021
ATT	3.63%	3.69%	0.982
CTT	2.04%	2.05%	0.995
GTT	1.86%	1.99%	0.937
TTT	5.60%	5.67%	0.988
