Oligo	TargetCounts	BackgroundCounts	NormalizationFactor
A	34.07%	33.75%	1.009
C	15.93%	16.25%	0.981
G	15.93%	16.25%	0.981
T	34.07%	33.75%	1.009
AA	13.28%	13.22%	1.005
CA	5.65%	5.87%	0.963
GA	5.65%	5.91%	0.957
TA	9.48%	8.75%	1.083
AC	4.94%	5.09%	0.970
CC	3.01%	2.87%	1.050
GC	2.33%	2.38%	0.982
TC	5.65%	5.91%	0.957
AG	4.98%	5.35%	0.931
CG	2.29%	2.15%	1.067
GG	3.01%	2.87%	1.050
TG	5.65%	5.87%	0.963
AT	10.85%	10.10%	1.075
CT	4.98%	5.35%	0.931
GT	4.94%	5.09%	0.970
TT	13.28%	13.22%	1.005
AAA	5.72%	5.53%	1.035
CAA	2.22%	2.36%	0.942
GAA	1.93%	2.19%	0.880
TAA	3.41%	3.14%	1.085
ACA	1.87%	1.96%	0.952
CCA	1.19%	1.16%	1.027
GCA	1.02%	0.79%	1.287
TCA	1.84%	1.96%	0.940
AGA	1.98%	2.21%	0.894
CGA	1.02%	0.75%	1.357
GGA	1.05%	0.99%	1.069
TGA	1.84%	1.96%	0.940
ATA	3.63%	3.03%	1.200
CTA	1.44%	1.32%	1.090
GTA	1.02%	1.27%	0.806
TTA	3.41%	3.14%	1.085
AAC	1.94%	2.01%	0.967
CAC	1.15%	0.98%	1.178
GAC	1.02%	0.84%	1.219
TAC	1.02%	1.27%	0.806
ACC	1.02%	0.94%	1.086
CCC	1.02%	0.48%	2.113
GCC	1.02%	0.46%	2.211
TCC	1.05%	0.99%	1.069
AGC	1.02%	0.83%	1.235
CGC	1.02%	0.29%	3.477
GGC	1.02%	0.46%	2.211
TGC	1.02%	0.79%	1.287
ATC	1.83%	1.72%	1.068
CTC	1.04%	1.17%	0.891
GTC	1.02%	0.84%	1.219
TTC	1.93%	2.19%	0.880
AAG	1.91%	2.08%	0.918
CAG	1.02%	0.78%	1.310
GAG	1.04%	1.17%	0.891
TAG	1.44%	1.32%	1.090
ACG	1.02%	0.68%	1.493
CCG	1.02%	0.42%	2.443
GCG	1.02%	0.29%	3.477
TCG	1.02%	0.75%	1.357
AGG	1.02%	0.81%	1.262
CGG	1.02%	0.42%	2.443
GGG	1.02%	0.48%	2.113
TGG	1.19%	1.16%	1.027
ATG	1.69%	1.76%	0.962
CTG	1.02%	0.78%	1.310
GTG	1.15%	0.98%	1.178
TTG	2.22%	2.36%	0.942
AAT	3.70%	3.60%	1.027
CAT	1.69%	1.76%	0.962
GAT	1.83%	1.72%	1.068
TAT	3.63%	3.03%	1.200
ACT	1.54%	1.50%	1.025
CCT	1.02%	0.81%	1.262
GCT	1.02%	0.83%	1.235
TCT	1.98%	2.21%	0.894
AGT	1.54%	1.50%	1.025
CGT	1.02%	0.68%	1.493
GGT	1.02%	0.94%	1.086
TGT	1.87%	1.96%	0.952
ATT	3.70%	3.60%	1.027
CTT	1.91%	2.08%	0.918
GTT	1.94%	2.01%	0.967
TTT	5.72%	5.53%	1.035
