cluster	numberGenes	numHasMotif	perHasMotif
down-down-down	9	1	11
down-down-not	4	0	0
down-not-down	2	0	0
down-not-not	61	5	8
not-down-down	44	4	9
not-down-not	101	9	9
not-not-down	98	12	12
not-not-up	77	11	14
not-up-not	53	8	15
not-up-up	78	19	24
up-not-not	12	3	25
up-not-up	1	0	0
up-up-not	17	1	6
up-up-up	34	4	12
