########################################################################
PBS Prologue:	Fri Nov  6 17:47:26 EST 2015
Job ID:		232830.login00.halcyon.local
Username:	ieclabau
Group:		lorainelab
Job Name:	flat1dex8hours
Limits:		neednodes=1:ppn=4,nodes=1:ppn=4,vmem=4000mb,walltime=08:00:00
Queue:		compute
Account:	
Nodes:		compute02[4] 
########################################################################


../fastq/nicknames/flat1dex8hours.fastq.gz
flat1dex8hours
/lustre/groups/lorainelab/index/bowtie2/A_thaliana_Jun_2009

[2015-11-06 17:47:28] Beginning TopHat run (v2.0.13)
-----------------------------------------------
[2015-11-06 17:47:28] Checking for Bowtie
		  Bowtie version:	 2.2.5.0
[2015-11-06 17:47:28] Checking for Bowtie index files (genome)..
[2015-11-06 17:47:28] Checking for reference FASTA file
[2015-11-06 17:47:28] Generating SAM header for /lustre/groups/lorainelab/index/bowtie2/A_thaliana_Jun_2009
[2015-11-06 17:47:29] Preparing reads
	 left reads: min. length=100, max. length=100, 26757801 kept reads (777 discarded)
[2015-11-06 17:54:57] Mapping left_kept_reads to genome A_thaliana_Jun_2009 with Bowtie2 
[2015-11-06 18:17:49] Mapping left_kept_reads_seg1 to genome A_thaliana_Jun_2009 with Bowtie2 (1/4)
[2015-11-06 18:21:05] Mapping left_kept_reads_seg2 to genome A_thaliana_Jun_2009 with Bowtie2 (2/4)
[2015-11-06 18:24:30] Mapping left_kept_reads_seg3 to genome A_thaliana_Jun_2009 with Bowtie2 (3/4)
[2015-11-06 18:28:05] Mapping left_kept_reads_seg4 to genome A_thaliana_Jun_2009 with Bowtie2 (4/4)
[2015-11-06 18:31:25] Searching for junctions via segment mapping
[2015-11-06 18:34:21] Retrieving sequences for splices
[2015-11-06 18:34:26] Indexing splices
Building a SMALL index
[2015-11-06 18:34:42] Mapping left_kept_reads_seg1 to genome segment_juncs with Bowtie2 (1/4)
[2015-11-06 18:36:21] Mapping left_kept_reads_seg2 to genome segment_juncs with Bowtie2 (2/4)
[2015-11-06 18:38:01] Mapping left_kept_reads_seg3 to genome segment_juncs with Bowtie2 (3/4)
[2015-11-06 18:39:42] Mapping left_kept_reads_seg4 to genome segment_juncs with Bowtie2 (4/4)
[2015-11-06 18:41:16] Joining segment hits
[2015-11-06 18:44:43] Reporting output tracks
-----------------------------------------------
[2015-11-06 18:56:53] A summary of the alignment counts can be found in ./flat1dex8hours/align_summary.txt
[2015-11-06 18:56:53] Run complete: 01:09:25 elapsed
TopHat v2.0.13
/sw/packages/bowtie2/2.2.5-1/bin/bowtie2-align-s version 2.2.5
64-bit
Built on localhost.localdomain
Thu Mar  5 18:34:52 EST 2015
Compiler: gcc version 4.1.2 20080704 (Red Hat 4.1.2-54)
Options: -O3 -m64 -msse2  -funroll-loops -g3 -DPOPCNT_CAPABILITY
Sizeof {int, long, long long, void*, size_t, off_t}: {4, 8, 8, 8, 8, 8}


########################################################################
PBS Epilogue:	Fri Nov  6 18:56:59 EST 2015
Job ID:		232830.login00.halcyon.local
Limits:		neednodes=1:ppn=4,nodes=1:ppn=4,vmem=4000mb,walltime=08:00:00
Resources:	cput=04:06:24,mem=2985288kb,vmem=3561736kb,walltime=01:09:27
Account:	
Exit Value:	0
########################################################################
compute02: ignoring orphans (shared node)...26023 26256 26343 26977 
