gene	logFC.at2hours	PValue.at2hours	fdr.at2hours	logFC.at4hours	PValue.at4hours	fdr.at4hours	logFC.at8hours	PValue.at8hours	fdr.at8hours	logFC.GLM	PValue.GLM	fdr.GLM	fdr.antail6	logFC.antail6	w.rpkm	m.rpkm	C2.ave	C2.sd	T2.ave	T2.sd	C4.ave	C4.sd	T4.ave	T4.sd	C8.ave	C8.sd	T8.ave	T8.sd	symbol	desc
AT3G52500	-0.301588498455678	5.93014785853846e-09	4.51284252034777e-06	-0.357105571935531	7.88401497015388e-19	5.00744960115983e-16	-0.323193798174686	5.9215309597401e-11	1.50655922726173e-08	-0.326918825049957	3.81768232179567e-42	1.54856102635809e-38	3.19572129921829e-13	0.6	52.53	79.77	116.767036544196	2.04495690328102	95.239366125655	1.81563785386552	92.0554485521591	1.80618301752742	70.2750308163076	0.547876154585813	103.991701060812	3.98462962318645	82.0231489959912	2.79444188828422	AT3G52500	Eukaryotic aspartyl protease family protein
AT1G53160	-0.226710642372882	4.43094843750093e-06	0.000911006393384421	-0.305666362438535	2.26668146423943e-12	7.6426342555362e-10	-0.433615097037143	4.5454112148338e-12	1.32872572384538e-09	-0.322794139654384	1.24524234298587e-14	4.53300142137701e-12	1.14575149131151e-10	0.58	76.89	114.58	79.5273576267928	10.2365519270021	64.1097961854059	2.97598518127772	103.461778014993	5.04620865099786	82.4353805966993	1.67882250318574	91.4503888283832	3.98316626153764	69.8535909039691	8.19088016418951	SPL4	squamosa promoter binding protein-like 4
AT2G38750	-0.562167167474994	5.68608102020394e-08	2.99568991595206e-05	-0.347336150659763	1.76394332035366e-06	0.000180430921431381	-0.360984481870232	3.55004035543812e-06	0.000334403974380941	-0.419205284971153	2.99326084804082e-12	6.53774219379008e-10	1.25600055016059e-13	1.01	8.91	17.89	9.72893864409174	1.74090300307657	6.48180738001619	0.235570324492343	12.435670364852	1.86969967688216	9.3484013090329	0.471767990441803	15.0384063001014	0.808572896697485	12.2317718297505	0.44824098924956	ANNAT4	annexin 4
AT5G50915	-0.492484909600088	3.74800121910994e-06	0.000808505837785321	-0.369290190311325	5.83717900771999e-06	0.000520977764313205	-0.411959576889377	4.30510106237594e-06	0.000395938399395473	-0.423371702195977	5.50642590151398e-16	2.48173741345378e-13	5.31447674148064e-11	1.49	20.89	58.56	8.75749662638746	0.808855781525704	6.31725882167144	0.830054785118986	9.59431330689402	0.726676932640743	7.69785435208027	0.720936842780318	9.96495923767691	0.992462378303748	7.30552447305082	0.254697328308564	AT5G50915	basic helix-loop-helix (bHLH) DNA-binding superfamily protein
AT1G02065	-0.372549658821615	6.17918769665418e-12	9.95794271397283e-09	-0.595596050119667	2.1814431188973e-44	5.95773930202043e-41	-0.538825229898673	1.13300162134049e-18	8.116763983619e-16	-0.502913046281425	1.58085843370154e-40	5.61086179581518e-37	5.11061945728793e-06	0.5	43.68	61.87	35.6828752771383	2.78936562894609	27.3633815938759	2.81000630118515	41.4514600449705	3.94294300148808	27.2744005719708	2.61840865111777	38.6737093589643	3.27834154949603	26.2338662716959	1.73303139440026	SPL8	squamosa promoter binding protein-like 8
AT2G44940	-0.561650707449213	5.97775606178931e-16	2.04708256335975e-12	-0.706044724882231	2.90729667187359e-27	2.73797170363929e-24	-0.366487493695477	1.30046566139989e-06	0.000136689485329302	-0.547939602784063	2.79680630730144e-22	2.40643994816718e-19	2.00986635256246e-11	0.74	9.01	15.06	23.7619719008486	3.58761367807149	15.7779682497377	1.96646871077871	24.3139113224719	2.20028244436153	14.668642984251	2.21304558664361	16.6428422922961	0.891662787754424	13.0317868098991	0.614568103180763	AT2G44940	Integrase-type DNA-binding superfamily protein
AT1G13710	-0.312314259837724	2.77716115349763e-06	0.000698010155607533	-0.278871930420007	3.35296349279237e-08	5.45076106855074e-06	-0.192703686813095	0.000966785070618556	0.0364526176972977	-0.260972579747516	1.447558076182e-12	3.31467451734771e-10	5.29844600696192e-06	0.56	14.87	21.98	23.0246890909109	3.53671336132951	18.560679107489	1.51084101901588	25.6591580883966	1.07285297770081	20.8134947623725	0.386176369537604	23.7628092581004	2.62361054138904	20.512038531875	1.73077192287364	CYP78A5|KLU	cytochrome P450, family 78, subfamily A, polypeptide 5
AT3G09450	-0.528213230507321	1.83755440417328e-08	1.25854101141828e-05	-0.901899782066311	3.03509426296297e-15	1.5071174439233e-12	-0.421161891667069	0.38658103385778	0.872373262344456	-0.675325212108601	5.53879310091784e-15	2.15436289462275e-12	6.63874401848164e-39	1.75	5.34	17.94	7.01928526613241	1.30253736527256	5.05896625370472	0.901965685735951	3.27238499545879	0.516909575004399	1.78695929978122	0.424849799083073	0.102273547125181	0.0556533130805727	0.0986977640262963	0.00383439402693339	AT3G09450	CONTAINS InterPro DOMAIN/s: Fusaric acid resistance protein, conserved region (InterPro:IPR006726); BEST Arabidopsis thaliana protein match is: unknown protein (TAIR:AT2G28780.1); Has 503 Blast hits to 494 proteins in 215 species: Archae - 0; Bacteria - 423; Metazoa - 0; Fungi - 0; Plants - 65; Viruses - 0; Other Eukaryotes - 15 (source: NCBI BLink).
AT2G37170	-0.519040493909453	3.14989601656965e-09	2.53807503735124e-06	-0.499495974506401	1.33984324475115e-08	2.45586972197307e-06	-0.320524285453434	0.0166972810833276	0.283385338485927	-0.463679051890925	2.85387301642346e-09	3.50791646875877e-07	5.18275138651182e-11	0.83	16.06	28.64	13.7381287486347	3.64426049278585	9.2844614585427	1.61902979878031	15.3943372977542	1.86403565530284	11.1380866874176	1.64928755795686	5.41501632495441	0.255225275942067	4.47668929378945	0.767156255266941	PIP2;2|PIP2B	plasma membrane intrinsic protein 2
AT3G50280	-0.431151898384787	1.58317980740178e-06	0.00043717684552979	-0.240494065477688	4.38131473275928e-05	0.00283549968403765	-0.478337295524995	1.58475413830962e-07	2.16792773403029e-05	-0.378787331373431	6.52975140659128e-12	1.35332672583031e-09	3.61470108245094e-08	0.79	14.31	24.66	18.3807502431263	1.73318565560877	13.9294513463631	3.1564797552714	18.7090729853888	0.778090646949325	15.6325505746333	0.950473819261865	13.8314158555876	1.97098802167068	10.0067844474325	0.351464758556575	AT3G50280	HXXXD-type acyl-transferase family protein
AT2G16060	-0.742398705478062	7.54052091153729e-07	0.000245928703443423	-0.280523941296915	0.274370779701032	0.768010078447963	0.130946918506853	0.729432282557701	0.967004824716188	-0.414997527287966	0.0134410707662009	0.149973458835327	4.85906351556046e-23	2.79	1.44	10.06	5.63912696250255	1.860124818039	2.96600807692514	0.697001728308462	1.37099378530358	0.668447975229202	1.18478694409317	0.330108587808479	0.597311904004172	0.133804887270454	0.801730361061888	0.425648371740839	ATGLB1|AHB1|GLB1|NSHB1|HB1|ARATH GLB1	hemoglobin 1
AT2G38470	-0.464857305284575	2.15767395756277e-06	0.000557656940956507	0.114231910229752	0.434631117247276	0.869166760133292	0.210365659448973	0.285032731683734	0.820632526943938	-0.115468753757204	0.25360820009909	0.616836068964533	9.99833872722298e-22	1.7	3.22	10.53	4.95625064954629	0.866811128614994	3.540410175375	0.605160249881492	1.80644221197102	0.155724470952363	1.91107445170428	0.268603832807006	1.03354609700551	0.0906015085650134	0.995305370508116	0.218127282797869	WRKY33|ATWRKY33	WRKY DNA-binding protein 33
AT1G02930	-0.316563993280533	3.16304490139852e-06	0.000756375916928503	0.0723765935459128	0.19883978521341	0.756287156487828	0.292280678323597	0.00350491705361079	0.100015049214305	0.0134248186422565	0.873786747043679	0.967570750364694	1.29598644775808e-21	2	4	16.09	32.3522544194921	10.4417595779229	25.4123634271153	13.0021481588902	26.1205267351472	4.10404306909418	25.0422078585356	2.91487062853709	14.1154332338054	4.66555698823057	15.6477855301831	0.350931695091219	ATGSTF3|ATGSTF6|GST1|ERD11|GSTF6|ATGST1	glutathione S-transferase 6
AT4G33050	-0.515771440338454	6.32757335095508e-11	9.12369471172449e-08	-0.344923546880394	0.00283133295681336	0.0809701930717587	-0.251715132694466	0.0496172083494445	0.510847823945105	-0.400312612325343	4.74091460874937e-10	6.85757330397077e-08	1.12260826132924e-43	2.43	3.8	20.52	10.5172904934792	1.91598335003407	7.48826729221018	1.12247105221672	3.44468990599483	0.219142985196884	2.59605956109224	0.503552058626869	2.71768379692545	0.414790865838483	2.05274303657367	0.139851907216673	EDA39	calmodulin-binding family protein
AT3G05640	-0.488372122272316	1.61172658046827e-06	0.00043717684552979	-0.226095425806185	0.0355290340079851	0.394444490972391	-0.346061065709805	0.0020039174730528	0.0654893701907761	-0.353957750555879	7.40292925799051e-08	6.61002431922587e-06	1.38998676042147e-11	1.3	3.41	8.4	5.62745992863631	0.970304920936717	3.96959189534871	0.4629302372676	5.31898476403521	0.300516876453616	4.82038838534428	0.606971411741769	4.45415862594884	0.447914190815764	3.44501314526253	0.330623317585032	AT3G05640	Protein phosphatase 2C family protein
AT2G16630	-0.332211991563088	2.91230958804627e-07	0.000112253274891982	-0.191857923757265	0.00153646121720169	0.0506179641773166	-0.135426689856896	0.0445914494442324	0.484367421877207	-0.223118848773835	8.73147448788963e-07	5.94535939110643e-05	4.67758796052036e-13	0.67	21.46	34.11	26.5539888301426	2.39900348105624	20.8495728667757	1.12655034646934	23.6793623984026	0.512646207375154	19.9337977901882	1.01069638512712	20.5813366791127	2.3260354796822	18.400155699645	1.11007068040603	AT2G16630	Pollen Ole e 1 allergen and extensin family protein
AT3G22410	-0.382472578135474	1.1799663491573e-06	0.000354898202954953	-0.227746235407077	0.00330496754794132	0.0900818050916422	-0.125380748209046	0.151105829127891	0.751923003227875	-0.251442283476614	2.24225236967036e-07	1.78838521866349e-05	1.04194552754279e-15	0.82	10.04	17.77	10.3581112642624	0.80958268257959	8.11738789484588	0.773348161163326	9.48636690905991	0.665068495562602	7.86217845335131	0.534337360493928	7.57306269019323	0.588662525983859	6.8705246392359	0.758972444071073	AT3G22410	Sec14p-like phosphatidylinositol transfer family protein
AT2G36590	-0.278853617920074	4.7449833403149e-06	0.000941982344864255	-0.222131156905655	3.12683544392215e-05	0.0021190323277657	-0.24366469842639	0.000107535101151267	0.00616300643924408	-0.24816992292114	1.72678934918854e-09	2.20857913427295e-07	4.40823785277176e-06	0.74	29.1	48.74	28.4468405668121	4.56918452063317	22.3580723827517	2.95128447986083	23.0693096263409	2.52381541275165	18.9374939838209	2.0730812436859	19.0125316401638	1.26885032463012	15.8936237506073	0.487432200654435	ATPROT3|ProT3	proline transporter 3
AT5G59580	-0.689246854997839	5.25265752624395e-07	0.000182154184289847	-0.513587242949257	0.000418839223102486	0.0186605514227602	-0.635574545855757	9.17846862733868e-05	0.00539666201818663	-0.629639072541231	2.50761473036147e-10	3.86963112249367e-08	5.46016030753335e-14	1.3	1.07	2.63	4.42914551765013	0.900827284043927	2.73333302788066	0.208830531373512	2.44520083807033	0.523262983580227	1.61107840677463	0.0917146130473652	2.55455032751107	0.642775209602982	1.65373385363152	0.00596907399092686	UGT76E1	UDP-glucosyl transferase 76E1
AT5G28300	-0.245648334155494	6.14475422492736e-06	0.00116097714997317	-0.241063067224354	4.7289961920278e-07	5.89742534248728e-05	-0.253823070859794	6.46457785474196e-06	0.00056953140109916	-0.24652594988973	5.89709846339787e-15	2.26273261850972e-12	5.54927702780475e-12	0.8	26.87	46.64	35.3236912098054	2.16719314606837	30.7030836253165	1.8480726185338	34.6061118031181	1.173729059802	29.8315862582603	2.04905878046523	34.3026233489276	1.82757482294766	27.9841031766545	1.56834647469315	AT5G28300	Duplicated homeodomain-like superfamily protein
AT2G25810	-0.151941909480666	0.0618698649007746	0.408332165459316	-0.307357294771743	3.81477270188385e-08	6.12854454477352e-06	-0.269500770622226	5.91574461200561e-06	0.000529751038067858	-0.244213699407364	5.09066613761521e-08	4.66272175198214e-06	3.08309676976892e-16	1.17	11.16	25.07	27.4276289419165	3.76925071593361	24.8314512891388	3.40543729468836	28.2962373611918	0.544634068028807	22.3739780770429	0.517227813248877	25.9286532125575	1.48768348567225	21.0897093509614	1.74251509073549	TIP4;1	tonoplast intrinsic protein 4;1
AT4G30250	-0.0705040578756999	0.284138076192542	0.66100323599088	-0.277092406914948	8.08388946708294e-09	1.56580925698938e-06	-0.311824608186846	1.18048466994954e-07	1.66509503471691e-05	-0.217517675563947	1.51774952831192e-07	1.26378240782665e-05	1.83412697635805e-10	0.82	28.67	50.47	23.270046408806	2.30980801003068	21.4987914418104	1.23171134361633	28.7034310187144	2.46540785801984	24.0717071629676	2.02556139800374	25.1553301921924	1.26143367087786	19.6305488130769	0.398858983220526	AT4G30250	P-loop containing nucleoside triphosphate hydrolases superfamily protein
AT4G27560	-0.119061260293406	0.0361383814907158	0.331119431210585	-0.230825368038568	4.04971685720637e-07	5.14427056219364e-05	-0.280388687529172	1.55998016719358e-08	2.57377818736429e-06	-0.21347347774364	1.35780862130118e-07	1.1508542684545e-05	9.47500258395183e-07	0.68	19.47	31.12	29.5245243714451	4.4154150016286	26.056481834122	3.28881161460049	51.5976201426739	1.64355182145795	43.4603306500779	4.91902845624403	65.4938471065825	3.06764001758161	53.481932655685	1.25279240231	AT4G27560	UDP-Glycosyltransferase superfamily protein
AT5G15780	-0.0352105095703163	0.511148576642619	0.826843788716415	-0.190860732447659	2.32631570083968e-06	0.000230195681542146	-0.332161827848892	6.97991121685323e-09	1.24192237291762e-06	-0.186376592946448	1.77602326083484e-06	0.000111276191299184	7.22141837407915e-16	0.66	127.83	202.4	113.17100917647	12.0895899716671	111.460502820926	18.6524520563108	134.212369621569	12.3842841765617	119.830461507541	9.62590591934688	182.188613635307	22.8397812262971	144.10331110136	9.05511075830194	AT5G15780	Pollen Ole e 1 allergen and extensin family protein
AT2G18328	0.0173200789050592	0.806258984777246	0.950267026090708	-0.330494776022619	2.18604356218884e-07	2.98515178634697e-05	-0.33163193682263	2.332206170399e-08	3.73468521039835e-06	-0.21167595588203	0.00071511255805322	0.0173071333212672	1.7326298721271e-17	0.83	45.48	80.89	54.3687324420698	13.2418350980034	49.5412447306865	7.55768980528858	72.0089012489501	8.61530048755656	55.4188700710968	6.25102673078305	67.5759635161278	5.01318806227466	53.5657794370224	1.20122918277937	RL4|ATRL4	RAD-like 4
AT2G22420	-0.181319059626081	0.00263807263062033	0.0862441978382751	-0.476716395846957	7.62911811194576e-17	4.43316690968831e-14	-0.293290105964692	7.53339643525139e-07	8.4744483949111e-05	-0.310606504885937	4.51547213801153e-16	2.06794057881773e-13	1.46718899859495e-07	0.49	46.31	65.05	30.8387196102319	1.81419304147245	26.4831848471112	2.36227693507793	27.7485191613806	0.780634589196634	19.6462295391764	1.66766564428855	34.1648693647616	2.04513384825565	28.5658704169912	0.391008933040892	AT2G22420	Peroxidase superfamily protein
AT1G09970	-0.293627520429007	9.99113232101561e-06	0.00158936252377923	-0.223459453308516	8.09356706274674e-06	0.000686470217548684	-0.362765210395413	3.24177341085262e-11	8.73770272907335e-09	-0.293887366484226	5.29377613890845e-13	1.31852175165058e-10	1.31249666909649e-37	1.63	9.13	28.26	32.6082176591696	4.13634382081761	26.2717336649472	4.52233281620843	13.6265778338968	0.634543303329393	11.2174547983253	0.522236926982946	13.9012351724869	1.33061354256327	10.5011563144519	0.322000935994082	LRR XI-23|RLK7	Leucine-rich receptor-like protein kinase family protein
AT1G24070	-0.265510100503338	3.19811641550039e-05	0.00387679634155082	-0.32010528829096	5.71768861945178e-12	1.8813951070584e-09	-0.431218745786736	2.41745583114087e-12	7.39442697653348e-10	-0.341669218232946	3.33667397780888e-20	2.42926976733091e-17	1.46554944731918e-73	1.95	22.26	86.21	25.839245895338	3.37285608038763	21.7244829271109	0.953608246451964	34.6662120782567	0.610004291420479	26.9628075047173	1.69761219769864	41.9990642202796	3.86843853531285	31.0412111978097	1.29004192634536	CSLA10|ATCSLA10	cellulose synthase-like A10
AT3G45140	-0.16656116954232	0.00694224729167316	0.147433958761766	-0.253290843740427	9.93524282309861e-08	1.46671036076566e-05	-0.405505811427911	6.7468237155966e-16	3.46544871716389e-13	-0.275726600086279	1.27543001184847e-11	2.53248669625353e-09	5.33706574264929e-24	1	263.6	527.22	318.015830950582	56.966424699681	285.369682127203	43.6369350337237	453.091869337255	71.5320079252039	365.303061109103	47.7492010008919	564.66475401749	47.3406212209374	422.424744839564	21.6273230724569	ATLOX2|LOX2	lipoxygenase 2
AT5G52320	-0.336240698138935	1.81090731312706e-05	0.00246823963932482	-0.294122885438027	1.18577087210345e-05	0.000946917786199333	-0.329283129430927	2.69389879595366e-06	0.000260056762135625	-0.319339202940502	1.55637880813548e-13	4.37542771071276e-11	9.83142861927499e-32	2.13	3.48	15.21	16.6906457230311	1.61266914007775	13.025326813313	2.39635913716879	12.4719359709327	0.831135458285912	10.3449606033252	0.30537074381484	13.209664896328	1.02562213561428	10.7552784101068	0.499100126979329	CYP96A4	cytochrome P450, family 96, subfamily A, polypeptide 4
AT2G39330	-0.268075942649412	3.86869294979371e-05	0.00445322319548523	-0.366881073601859	1.4706330032616e-13	5.57839693778853e-11	-0.801599232616506	3.39868094360128e-51	2.31305728319144e-47	-0.48005991231268	9.86846771386845e-14	2.94952918176401e-11	1.82375948000049e-25	1.44	44.2	119.77	46.2818874322625	10.1949652625883	36.1855148407264	11.0611061236752	70.3648005223052	18.3494922359538	50.8976534531827	12.5066862087475	73.167625897819	14.9891887408305	40.2806427457758	8.71206988170898	JAL23	jacalin-related lectin 23
AT5G37600	-0.275853864284054	8.47875266285618e-06	0.0014338512836519	-0.533409841423927	1.14592620813815e-27	1.11772823823075e-24	-0.666918415796535	1.65861831740998e-34	5.64407080685649e-31	-0.488272405359693	1.57157896388931e-22	1.43946493873138e-19	1.5389278892453e-13	0.63	27.23	42.06	104.135546983757	15.2172403646967	86.140397352721	11.2538228454022	77.0086594436626	5.37144630744109	54.2260787884487	9.84349933466444	69.817757786672	6.5553449765496	43.0381159208515	1.04235259515872	ATGSR1|ATGLN1;1|GLN1;1|GSR 1	glutamine synthase clone R1
AT1G19050	-0.305209650471722	0.00110354347604254	0.0492388877356048	-0.549190301600949	4.33864536892248e-06	0.000402721741337048	-0.482988648702946	2.62152083856941e-07	3.38225885252962e-05	-0.434762998291191	2.75056961042462e-09	3.4104660925064e-07	1.65618858475967e-30	1.25	18.6	44.15	22.8925591973866	4.16234883852691	17.6533119686359	1.36246423333391	14.052382742463	1.42476707530392	9.01196291478409	1.71022694493634	14.0033831858786	0.713682849943594	9.92923941932746	0.437259672982502	ARR7	response regulator 7
AT1G77990	-0.226369095708894	0.00472094812386998	0.118438731503244	-0.457816928258741	3.16105886516922e-07	4.13070232854721e-05	-0.570577815078394	2.37306274439812e-08	3.77788813396199e-06	-0.402507751183836	8.26948101018324e-13	2.00410343560655e-10	4.04836341297811e-12	0.66	8.07	12.81	6.96657342886872	0.276330028722845	6.14486046236976	0.0573535044443882	5.00813154909244	0.839482826098966	3.537581595585	0.381944407608371	4.9086312549882	0.455715343651941	3.21119955398213	0.0835729738017735	AST56|SULTR2;2	STAS domain / Sulfate transporter family
AT4G30460	-0.312456790217685	0.0091655431909524	0.172221688106538	-0.51682511580962	8.701277326673e-11	2.40040995018956e-08	-0.913843693099324	4.87587074526115e-17	2.82416658081371e-14	-0.563420135883363	1.86708153878904e-13	5.19744247180156e-11	2.31799092155676e-17	1.13	21.43	47.01	16.3981314812499	3.17146573128913	12.9497591901199	2.03816401410336	16.9532728367543	0.981408783371256	11.906881225557	0.21275467143009	12.6616087418475	1.7069162442862	6.72572748480878	0.162458255733794	AT4G30460	glycine-rich protein
AT1G77690	-0.357068422777008	5.22532607761537e-05	0.00560062005208491	-0.762616038517579	1.25281301034492e-16	7.12824502615209e-14	-0.783404053574988	1.25242290748674e-13	4.67050805623447e-11	-0.61690951858434	1.63412137723833e-25	2.20948773263358e-22	1.84681337698753e-06	0.63	8.08	12.47	6.88321690228548	0.413554343388854	5.33688483854197	0.122653783347415	6.31452825324157	0.125732295755197	3.67929798531333	0.0958796668143766	5.93138521823963	0.490904021905587	3.44755134110546	0.0873644089748628	LAX3	like AUX1 3
AT5G59780	-0.362369658378928	0.0120461558700267	0.196668587761753	-0.797696249504349	6.72068503448018e-07	7.91432276844988e-05	-1.21224493784652	8.35507079725313e-06	0.000704179852364155	-0.659568392637877	5.4209833692108e-09	6.30833613874473e-07	3.05442015104291e-47	2.41	1.67	8.92	3.42861800726443	0.290440792774939	2.7023688911457	0.218221588806624	2.88367818812948	0.583136891475531	1.62844099385914	0.305943942120764	1.05920802117017	0.210253603067499	0.503361175720831	0.187314710080774	ATMYB59-1|MYB59|ATMYB59|ATMYB59-3|ATMYB59-2	myb domain protein 59
AT4G30450	-0.0462302160233299	0.627692329143999	0.881515535567053	-0.363077344396251	6.54588621829944e-06	0.000572995828551205	-0.708566041706749	1.19152125966314e-13	4.50510878497355e-11	-0.370159990807794	2.22141001823872e-06	0.000134201523527383	5.21839758481265e-19	1.15	27.61	61.34	15.8137822991837	3.24074886297607	13.9141480131587	0.462620123074228	23.3378007382549	0.553690045255374	18.2085192719559	2.25569324686795	19.2367377629772	0.553667141791417	11.9638593598396	0.830772091599657	AT4G30450	glycine-rich protein
AT5G24770	0.041521329626703	0.588327681557664	0.864161594201874	-0.246398222478821	8.41233115094189e-06	0.000711297758710136	-0.574629568149674	2.56809783066377e-14	1.04345264543522e-11	-0.260717514756825	0.00104093781300482	0.0232727466633535	1.78931718461946e-82	2.46	78.75	433.52	36.2298408520917	2.94402325719166	36.1405220947584	8.26790457999048	55.4203060790734	9.53299994415174	43.6402750429046	6.66604999771022	78.2645950852971	2.06363754777792	55.3293681189987	7.20208528085351	ATVSP2|VSP2	vegetative storage protein 2
AT1G75900	0.0104201302672548	0.878807997190255	0.975805234759188	-0.225874674982307	8.76598870592781e-06	0.000732134304426894	-0.117074106681876	0.0417882255604671	0.473014912445986	-0.112408818058454	0.00400587871384141	0.0653319472721499	1.72124858031097e-11	0.61	23.68	36.1	22.5178527662637	1.84437982001088	21.633982411418	0.32549485174982	27.474667878463	0.594803916985552	23.6048256137775	0.551544912735303	28.583772193744	0.772771319476881	26.7870603306927	1.5783006928221	AT1G75900	GDSL-like Lipase/Acylhydrolase superfamily protein
AT1G65900	-0.0205287094740795	0.759330751426449	0.931396478121159	-0.218829923409509	1.18300668438731e-05	0.000946917786199333	-0.0898137055797207	0.096148214631879	0.655438027836312	-0.113458903946435	0.000951213196351427	0.0216416245971173	3.32166613230638e-13	0.82	19.48	34.43	17.2809189789046	1.69222716954881	16.7150922971667	2.14016783514915	27.0429341481973	0.926168014191974	22.9535416851952	1.6680872554129	32.7655172313725	1.93417665289952	30.5379535938022	1.95771193016819	AT1G65900	unknown protein; FUNCTIONS IN: molecular_function unknown; INVOLVED IN: biological_process unknown; LOCATED IN: endomembrane system; EXPRESSED IN: 21 plant structures; EXPRESSED DURING: 13 growth stages; Has 306 Blast hits to 306 proteins in 119 species: Archae - 19; Bacteria - 238; Metazoa - 0; Fungi - 0; Plants - 34; Viruses - 0; Other Eukaryotes - 15 (source: NCBI BLink).
AT3G47960	-0.0380029393776033	0.577066996370623	0.858238259734559	-0.226182453075576	3.46747606936041e-06	0.000332281540106324	-0.0939136362952275	0.139274713265532	0.732825251194571	-0.116616987454547	0.0085310548316468	0.11016181629928	1.54447595363725e-07	0.57	34.4	51.13	31.4446638566165	3.38776119062861	31.9285429743024	1.65496972795642	21.852464709869	1.70340292703851	18.9033162661412	1.31100940638278	20.435167892477	1.09280277410541	19.2160969257635	2.47773788975033	AT3G47960	Major facilitator superfamily protein
AT5G37300	-0.0774966911198574	0.133553144379428	0.542940398585897	-0.201675917755069	9.75538824511544e-07	0.000108746697290754	-0.0978443360566583	0.0653052395204261	0.576482751699437	-0.126151199447751	4.75548284057356e-06	0.000265279331582015	5.53921679616932e-07	0.76	60.88	103.19	44.948847294194	2.3607546505615	41.612789671692	2.66654304770225	42.8462905603851	2.29544843849487	37.9663506665501	1.71833130481436	29.4745064863589	1.52650072602988	27.9504016512473	0.99414704319136	WSD1	O-acyltransferase (WSD1-like) family protein
AT1G61800	-0.167448749391351	0.100710587194657	0.487037466334478	-0.461298556838999	5.78593532212428e-07	6.96121936486943e-05	-0.00527443852247464	0.974798373937154	0.999134607074386	-0.209211188154663	0.0330327314603233	0.258139848662831	1.59814704395783e-07	2.65	1.43	9	6.37472208444295	2.04570175142997	5.6090782411187	2.74286754656602	19.1638146252215	5.64029806421454	13.2140082631567	5.62874161274725	11.318101075663	3.72481979734078	10.1279424607375	1.78547895573171	ATGPT2|GPT2	glucose-6-phosphate/phosphate translocator 2
AT5G20190	-0.137694552087273	0.0139606891847584	0.209583772456238	-0.23678662700901	2.20215722252939e-08	3.78258590594341e-06	-0.183854655009092	0.00739157175267538	0.168385571400069	-0.186727425754089	6.26811939695246e-06	0.000334543199543361	4.56618343462806e-06	0.56	60.77	89.68	88.2978133946106	14.5946524008224	76.5900383133889	8.74511733943169	89.3603994290493	3.59366425308121	75.280402902902	8.73664795902039	79.9629494179278	10.3106235362972	70.5665928789339	3.09268183671564	AT5G20190	Tetratricopeptide repeat (TPR)-like superfamily protein
AT5G63850	-0.14665616612803	0.010430305476399	0.184345777126918	-0.245301759701375	5.29032715702804e-07	6.47910874374855e-05	-0.185124021739321	0.000492670694701114	0.0214248791083841	-0.191998749520696	3.96575356460834e-09	4.70008233088189e-07	8.24388532742659e-10	0.52	21.38	30.68	30.8833328125587	1.67538924391715	27.8568911095756	2.03586701488674	27.1434924535258	1.97347426327215	22.5431093284662	1.00541667158683	22.9341927851709	1.61811788267045	20.1668315733316	0.951677405392756	AAP4	amino acid permease 4
AT2G10940	-0.0781943912915871	0.152057514089865	0.568834303100695	-0.213440917910543	2.46824117712637e-06	0.000242482499239202	-0.187212754162834	4.54649360136729e-05	0.00295391874248262	-0.16032974880816	5.19759811954002e-07	3.72678285369241e-05	6.47576281327022e-16	0.79	443.83	764.79	343.783975527349	21.3873664474149	321.932292421214	14.3301466728442	428.247086456773	34.0602254410334	362.549602274891	17.1257691383641	394.740366622425	24.3153626988582	345.48723076703	18.3430036283187	AT2G10940	Bifunctional inhibitor/lipid-transfer protein/seed storage 2S albumin superfamily protein
AT2G22240	-0.106659205590761	0.0507382824227655	0.377827122928536	-0.227332036710116	9.36480358798292e-08	1.40997207701047e-05	-0.107857491183806	0.0282731697715984	0.382735206709211	-0.146543461021415	7.0986686377468e-07	4.97752587196154e-05	1.00840388851477e-22	1.15	79.7	176.27	67.9041062699194	2.5181934293913	62.2795578813492	5.74168889676393	68.4303813264439	4.88155616815288	58.3527206955792	7.524086408035	56.2154041744888	3.50856187779914	52.4266385758159	0.599756968012939	MIPS2|ATIPS2|ATMIPS2	myo-inositol-1-phosphate synthase 2
AT2G20570	-0.141475978257707	0.0113550933199247	0.191420757196981	-0.233092151674402	3.88048878031766e-06	0.000362945322991467	-0.112518176422013	0.0356360423750936	0.434641568806977	-0.164227388818186	2.54773313557708e-07	1.97340950925031e-05	6.46365009336316e-41	2.18	21.81	98.88	31.6702472324256	1.78237288846601	28.1025672584323	1.24702253486124	31.3998954992128	2.41263297916366	26.2845644955378	0.351339441417059	22.748949764829	0.330229324840312	20.981144208307	0.524432484000113	ATGLK1|GLK1|GPRI1	GBF's pro-rich region-interacting factor 1
AT1G68570	-0.164841933200584	0.0117877575000224	0.195549179528222	-0.247100491667701	1.75827816518792e-07	2.45667791471551e-05	-0.0920806168440843	0.0614658819003898	0.560893225576071	-0.169305606693721	4.05795340140284e-06	0.000230904867493852	1.39243949127807e-13	1.17	118.26	265.68	116.384409365067	7.89982777155211	107.092617241842	2.68955388149158	112.020316881158	6.95720706814204	94.5756382594901	2.578578534779	129.831378943768	7.69977103648382	121.675370813781	10.0192848321762	AT1G68570	Major facilitator superfamily protein
AT2G36870	-0.207140545268153	0.00033436657487855	0.0208663022445849	-0.264178819392036	3.8804889719713e-06	0.000362945322991467	-0.185967108459719	0.00893941517692862	0.191391737228776	-0.221508794452437	1.34399304387161e-07	1.14255504454164e-05	2.21957436737085e-18	0.95	22.76	44.09	38.5214849211854	4.53602986545781	32.7149011448327	2.1656191662785	29.4739092611433	3.2873626426555	25.1776400297731	1.62748335389201	23.8573123968661	1.5731941320343	21.9778357487858	1.16949794726126	XTH32	xyloglucan endotransglucosylase/hydrolase 32
AT3G61820	-0.160154208795592	0.00300382102437142	0.0936575930762346	-0.252375213963342	3.66426569817142e-07	4.74287964373268e-05	-0.172692655166666	0.00038924571726837	0.017602053423915	-0.193626876878123	4.70098582873816e-08	4.347875948573e-06	3.38156001679414e-19	1.11	35.68	76.79	82.0832890492253	6.13199851742531	71.4383588148211	8.75346869054906	100.900429620938	2.40913592235906	80.2661086408842	0.943855123793524	96.5303641884976	4.74577089901257	84.8187178483478	1.80176936091318	AT3G61820	Eukaryotic aspartyl protease family protein
AT1G28610	-0.159782130215484	0.0151644457693062	0.21728303153552	-0.20293750496249	4.35000233218956e-06	0.000402721741337048	-0.198895202520596	0.000207032292652987	0.010398597975816	-0.189320057147228	3.92334141717271e-07	2.91621351306811e-05	2.83478134728389e-07	0.71	7.48	12.24	24.0567534836008	3.45973163235647	20.7827076454656	2.42252686326396	53.6662905384563	1.73977941639452	46.3699027050051	5.54735749647938	55.6023933812318	4.54615738359322	47.7849056383364	0.17565115485854	AT1G28610	GDSL-like Lipase/Acylhydrolase superfamily protein
AT1G75820	-0.239981420569843	2.84235914041673e-05	0.00349189556102497	-0.217164141352281	5.5740703102999e-07	6.73599266569029e-05	-0.217020655704778	3.48229024480663e-05	0.0023523173035824	-0.225175605435945	8.93968754542172e-13	2.1152790680392e-10	5.9891419736039e-34	1.09	11.09	23.63	19.3210922173839	1.78097086411361	16.7378502188501	1.32519265786012	16.0714722450598	0.842042751057082	13.7950394672316	0.800113188190277	13.3560372210421	0.365714117397883	11.51145575166	0.457624006568836	FAS3|ATCLV1|FLO5|CLV1	Leucine-rich receptor-like protein kinase family protein
AT3G55110	-0.223230200453978	0.000183154838201023	0.0137095900200962	-0.23874355371402	5.5748016295385e-09	1.14476246093478e-06	-0.231966877924569	2.87151707439985e-05	0.00201993047329165	-0.230202720645323	3.21657995214833e-13	8.4566269593796e-11	1.13069481755422e-08	0.83	37.26	66.36	33.2493043638769	1.1963902945952	27.8140977392073	2.3743820974406	31.135824289875	0.964990770096866	26.8157946397581	1.38957683042228	23.7453295442804	0.72213081640506	19.9901567519897	0.882357014659384	AT3G55110	ABC-2 type transporter family protein
AT2G01830	-0.222629447609048	0.00125256405110526	0.0538681045060922	-0.278801759374177	1.56712104675992e-08	2.81576598079343e-06	-0.21162008553327	0.00163421031646308	0.0552647297454341	-0.240016099596061	3.89602518589274e-09	4.64805626589237e-07	7.91898263850066e-07	0.47	12.21	16.97	10.6587394794605	1.26629454107089	9.1264537244147	0.317617216484734	12.2039040775192	0.563453491898164	10.2737438146887	0.0688310325723469	13.0634394166795	1.2967047746112	11.0933371202411	0.341084017684355	ATCRE1|CRE1|WOL1|AHK4|WOL	CHASE domain containing histidine kinase protein
AT4G32980	-0.20530131241354	0.00347654542055097	0.100893472819295	-0.244678199075884	7.64557284180374e-06	0.000654571284898126	-0.264715821516863	0.000225353722806185	0.0111399488127132	-0.239225368780774	2.28455671981706e-08	2.27605977201704e-06	3.94208155749283e-16	1.12	22.8	49.64	18.6518881055541	2.80726105416192	15.9123384897274	0.847319004035033	18.712654677567	1.4954674959486	15.8418539994818	1.63968941265345	14.5524987878117	1.00669577618712	11.8006658146686	0.845599165835661	ATH1	homeobox gene 1
AT2G30520	-0.139982332295723	0.00553493835092105	0.130382778213098	-0.262389732995569	3.70470973601227e-07	4.75372296333068e-05	-0.263253815556664	0.00108691121680847	0.039716757121043	-0.211919619303111	1.85007055301472e-09	2.35564588709866e-07	7.59607240713476e-25	0.97	77.41	151.4	35.6391263439459	2.24274133197089	32.088175163003	3.02409531182071	20.1104827100723	2.41022044917834	17.1458039512865	2.32202934955381	7.53622731601126	0.295846067619745	6.36704497731822	0.476401976401817	RPT2	Phototropic-responsive NPH3 family protein
AT5G53370	-0.143206204827674	0.0266709976050312	0.28442142872224	-0.276442213324296	4.60314853798007e-06	0.000421867750740851	-0.268912478778979	0.000637736557479011	0.0265054997011467	-0.219459266421281	2.49717644616235e-08	2.46055400937005e-06	8.67111441640086e-52	1.66	23.42	73.95	21.6299129693764	2.61196903852495	19.4170746766014	1.46891739955166	12.567734748566	1.05372268432044	10.4201564771851	0.561759576257626	8.87461165478791	0.509749481840858	7.38980987269306	0.518166962357069	ATPMEPCRF|PMEPCRF	pectin methylesterase PCR fragment F
AT4G14040	-0.0251553109874467	0.68607131448684	0.90576886567787	-0.264703936233172	2.15486358290485e-06	0.000214786420849322	-0.16365970399866	0.00648709764295873	0.154369107634847	-0.15300867537653	0.000194784584665447	0.00603789683077586	6.37792537617998e-09	0.54	36.04	52.51	19.4946551922827	1.78741189090425	19.2684737248934	1.29454832529885	28.1732044840234	5.07901304034551	22.534575649267	1.69111024376763	20.4741923395628	1.63989635255432	17.6213059362264	0.230029596558706	EDA38|SBP2	selenium-binding protein 2
AT4G29720	-0.031265559942766	0.573195425776659	0.856408006015119	-0.323400505384565	1.08723865240841e-11	3.37426986771887e-09	-0.21687750399412	0.000241244117533657	0.0118173696228021	-0.190067200750589	7.51453608283171e-07	5.21681509867784e-05	7.67322455747375e-06	0.67	20.18	32.15	25.5547373747618	1.31849462971864	25.0839176368597	2.02050952836546	30.8210506786074	0.747174825788751	24.7810576303014	1.25140726237036	25.0991717721291	1.48557467839712	21.7472468530312	0.956688468875294	ATPAO5|PAO5	polyamine oxidase 5
AT5G20630	-0.0125347177221071	0.837097624624893	0.961039609106278	-0.220704813033598	1.6293322502871e-07	2.29374706637067e-05	-0.185876882337443	0.00992605947332631	0.20598105229777	-0.138847876194518	0.00147742394281859	0.0303982868366164	2.86043923732434e-18	1.39	181.72	474.74	111.244014505483	11.8629226971257	108.12009984874	16.8710683589326	183.398322872007	20.700609776161	157.488666311026	26.2129606008296	417.981360454923	53.0224268812941	373.460349353139	22.3668896667806	GER3|GLP3A|ATGER3|GLP3|GLP3B	germin 3
AT4G28780	-0.0330485895692098	0.652099303264599	0.891596172692366	-0.392334582571323	1.68200729371588e-16	9.37495942830091e-14	-0.185935555210946	0.00317730929122312	0.0942216259824069	-0.206128616543026	1.97676599092618e-05	0.000902384140616688	8.03231934729904e-29	1.03	33.04	67.58	27.6288162495269	4.86907417580109	25.9561341560478	1.76683531439313	42.4140381348113	2.80183469561224	31.9721383375452	3.39186109287538	52.0872755543096	6.30000103337601	45.2862317237982	1.50219465928605	AT4G28780	GDSL-like Lipase/Acylhydrolase superfamily protein
AT1G10470	-0.0302526003720108	0.609343919191609	0.872224788373077	-0.414447998198285	7.16981363266139e-12	2.30370329554841e-09	-0.248251682836315	0.000158511237518064	0.00844452332476369	-0.224199072711512	3.32189862293568e-05	0.00140989520926212	1.30349234282883e-40	1.31	33.49	82.76	30.7165221829561	1.82176420623989	28.8308491851833	2.44450069673763	25.0239240951315	1.31275596317588	18.2738333182019	0.561859215776279	26.5022667080894	1.8558722046251	22.1139508942363	2.67774179123874	ATRR1|MEE7|ARR4|IBC7	response regulator 4
AT1G24575	-0.0161083738421887	0.861488431658222	0.970083019113357	-0.42615448793062	7.1882924672121e-06	0.000624783947033903	-0.308050526973469	0.00037605355226184	0.0171766876731947	-0.245641100348988	0.000987891136453405	0.022279730681857	5.62132859068061e-37	1.19	20.2	46.14	21.9583359167619	5.23336147341344	19.0582895935087	1.2775051298088	24.518348141173	3.73386460413267	18.0123468829899	0.305121428114188	25.8725096067566	1.74891412856839	20.8655307172205	2.05148526933879	AT1G24575	unknown protein; Has 7 Blast hits to 7 proteins in 2 species: Archae - 0; Bacteria - 0; Metazoa - 0; Fungi - 0; Plants - 7; Viruses - 0; Other Eukaryotes - 0 (source: NCBI BLink).
AT5G23810	-0.343474427174953	0.00109233110334335	0.0489779098317422	-0.449524844287229	3.11645879919043e-07	4.09200030118702e-05	-0.341825536830188	0.0012743306803546	0.0454072043341536	-0.380344289700024	1.59212285407915e-12	3.61653890549788e-10	2.40697613615454e-74	1.89	3.93	14.6	6.3723708876197	0.550888530613903	5.165208525475	0.727288980520579	7.79939862986004	0.512246032163807	5.61346021886946	0.498467499483052	6.07426731572271	0.383681228255627	4.79345216862742	0.441800715720711	AAP7	amino acid permease 7
AT2G37460	-0.286333593926593	0.00722664057442136	0.150577077368859	-0.445953449727567	3.54223826888388e-06	0.000338258983781425	-0.384851647041111	0.0121170014007193	0.233778263027485	-0.379559678764801	3.58259289230309e-08	3.3908047528018e-06	1.08672645485472e-37	1.47	5.25	14.52	6.08281297335137	0.206987028388836	5.07457445832186	0.701544129151165	6.29986394959172	0.810283455384049	4.42475140265136	0.183700228138431	4.43072845412497	1.16372312335564	3.18610054126953	0.462818109104743	AT2G37460	nodulin MtN21 /EamA-like transporter family protein
AT5G19260	-0.102025819156755	0.312040827953156	0.687109049263791	-0.488951429933793	3.32940750448885e-07	4.329973731195e-05	-0.370999287321869	0.00151280812993021	0.0518679794975947	-0.314634571431729	4.62393098064598e-06	0.000258958375275073	1.92954958045053e-14	1.14	6.25	13.79	8.8381062811281	0.738118387044424	8.34613835853735	0.853129359978815	9.14323923673946	1.38385059641027	6.6823757582584	0.480919018024514	9.5028646453465	0.930027795187996	7.70358729598604	0.948172890694942	AT5G19260	Protein of unknown function (DUF3049)
AT5G24530	-0.12926140294305	0.170269430447956	0.592794677411639	-0.403458202690718	1.07872234436119e-05	0.000874213232844166	-0.339845945504575	0.00578409983258752	0.142627309549393	-0.27547153158968	0.00021387681325294	0.00652289821214177	7.2371238494355e-63	2.38	9.37	48.75	20.0043184188763	6.0415492262209	18.5950964045543	6.39174716511071	8.49740302338143	1.40316417753799	5.98484951233961	1.16883035466892	5.57381889948073	1.51808974129374	4.21631841991489	1.07952511246477	DMR6	2-oxoglutarate (2OG) and Fe(II)-dependent oxygenase superfamily protein
AT4G31890	-0.194747443472467	0.0150780917312741	0.216778673829164	-0.343963614913519	1.96710946102594e-06	0.000199716455353456	-0.247138839283581	0.0032074114253317	0.0948583020283539	-0.264595426595485	3.1736507436927e-10	4.81885771210752e-08	5.74014564359626e-25	0.9	8.26	15.37	6.66170905758106	0.667095706775137	5.72169667948651	0.417234898127083	8.65746592815367	0.280767546020021	6.72622653955124	0.409086102618021	7.36662558028909	0.28151751278419	6.39054866967147	0.106437362796356	AT4G31890	ARM repeat superfamily protein
AT4G24120	-0.319202551308248	0.000167220478641395	0.0127609254397205	-0.266057763701912	3.88300473603811e-07	4.95554870775406e-05	-0.227955222225925	0.0236828632513144	0.349516743030606	-0.267461377623389	1.09860344156071e-05	0.000551126256531356	2.42747572664918e-14	0.87	13.84	25.34	17.1807813359844	2.69434064809751	14.8027280095114	2.74171516522884	15.7870826974141	1.9871092501802	13.5510086900103	1.24048271045612	13.4439665363338	2.40565895380891	11.2616424971765	0.953178739964671	YSL1|ATYSL1	YELLOW STRIPE like 1
AT1G68568	-0.180677880824896	0.00590011207867198	0.134924432810766	-0.275596457315418	1.53708366113141e-08	2.780085554249e-06	-0.114016085550105	0.0333312018403865	0.419736069780123	-0.189477906703023	9.76565289352119e-07	6.55522336308843e-05	5.72502457220842e-13	1.17	135.61	305.66	122.65760216336	5.74089530989613	113.331868586283	1.34236135234832	118.566732150323	7.2424463038142	98.6030836250892	2.32202578243358	139.419191223868	8.95055249474792	128.288892588917	13.2814409118647	AT1G68568	other RNA
AT4G10380	-0.236271489089402	0.00140717338525159	0.058322121123075	-0.258222641455367	2.32260351194241e-06	0.000230195681542146	-0.136024308933728	0.0658272518769906	0.578308647279703	-0.215302580388949	5.37050344545987e-06	0.000293250143904591	1.04057311901416e-25	1.15	9.98	22.09	24.0982278586569	4.39104199367131	19.9369078633118	3.5639097197105	20.5230760353775	1.93587112076126	16.6927267995891	1.00383562061185	13.9455533232714	0.922065359243642	12.837723720589	0.710560052189006	NLM8|NIP5;1|NLM6	NOD26-like intrinsic protein 5;1
AT1G78580	-0.221241088323174	0.000179098027918049	0.0134795867385793	-0.216128417847013	1.03171486858916e-07	1.51490133204508e-05	-0.173947966543778	0.000860164428857358	0.0331675017659828	-0.204530679418991	2.70381632951952e-09	3.38203351807829e-07	1.76022285829093e-11	0.69	27.15	43.69	23.1425755757964	2.44078839531943	20.2955260336317	1.3435458713733	25.7140619539564	1.20267268857441	22.1586412939723	0.155930419920425	23.4277272529894	0.838859691027226	20.272621287759	0.716608081099736	TPS1|ATTPS1	trehalose-6-phosphate synthase
AT1G80760	-0.196338230283994	0.0452771658457356	0.359611698789676	-0.419138833205621	2.64636905180339e-07	3.52560903286841e-05	-0.570400196177487	2.33716446620361e-05	0.00171033946944788	-0.360141067955565	1.48031290218209e-10	2.40182883111762e-08	3.73351040855542e-13	1.01	12.5	25.1	7.91984801793993	0.888540591048496	7.15213304595226	0.405357127902746	10.3362227841123	0.541021972586354	7.63792123060564	0.306902531633989	3.97599539170644	0.500019639232848	2.7156605416768	0.287794359607942	NIP6|NIP6;1|NLM7	NOD26-like intrinsic protein 6;1
AT5G24780	0.0165714739274839	0.812666453635589	0.952208071287214	-0.154410775999514	0.0100132456361371	0.189417978622016	-0.333970930300188	7.02303212174049e-06	0.000610824292172975	-0.156432052620886	0.0114586570297518	0.134002103666711	2.89411696151274e-73	2.04	582.92	2393.94	556.073683663057	108.156359686723	551.813634887662	191.420537340033	969.760464552632	231.331565094842	784.709607086589	152.161978571287	1535.49686826369	189.105065267566	1196.95944873023	286.017847753078	VSP1|ATVSP1	vegetative storage protein 1
AT4G16980	0.0936015401167733	0.0969658670767409	0.482126763684673	-0.161057485187699	0.000235036000905863	0.0117997577587133	-0.294470573393658	9.27632197928532e-07	0.000101826197503343	-0.119988717398662	0.0160507361685935	0.169737282223853	1.20034897962721e-22	0.96	197.36	382.57	75.4034577128467	8.44582635384622	79.8134602939001	13.6370903336507	81.3399665668812	6.08941385470529	72.3222900137354	6.51771917204256	67.1652328850104	5.87518388848142	56.408653111379	2.35931645175834	AT4G16980	arabinogalactan-protein family
AT2G43550	0.0157898573378679	0.753031038806209	0.929652848720046	-0.138487275474942	0.00112507959274744	0.0405212776863534	-0.215088084490953	7.78812101382463e-07	8.68918108030114e-05	-0.11467072725901	0.00959488413771778	0.118938262192027	7.2349888062463e-06	0.47	92.54	127.97	171.255697647345	27.1889385123909	161.694792586841	18.35802312075	298.295621902433	28.9347074612269	262.370748616161	6.11946035506967	441.651448354109	20.7467753946669	383.910864874144	16.8798807148072	AT2G43550	Scorpion toxin-like knottin superfamily protein
AT4G21910	-0.0752810060129509	0.150363250809992	0.56561192080057	-0.0475924979751428	0.268060144999932	0.767670500289607	-0.256232196391763	4.93173458496277e-08	7.41749229869843e-06	-0.127589035384089	0.000105018615846283	0.00361004670501133	1.64591274652323e-08	0.69	40.04	64.72	36.9441220105196	3.56206207375491	36.0355369254786	3.47545239409692	48.637791152527	3.12604893093167	45.2258475445626	1.30253108069529	53.745659633566	3.23031674827802	43.8598567980149	0.245086043160628	AT4G21910	MATE efflux family protein
AT5G57180	0.00273090842616869	0.964375969421849	0.998213704929848	-0.0394254158338436	0.433254826747447	0.868399128917615	-0.259160535280677	1.76339332373676e-06	0.000175841965025955	-0.0963107514217241	0.0200808527760146	0.194781729900229	6.08690795407692e-16	0.82	29.55	52.07	28.4740038548532	1.6340549559596	28.5403572525486	2.00576949092726	22.3739407257413	1.85307224166347	22.4945919765093	1.69626639235912	22.0386429658342	1.01072541628924	18.2218612812899	0.608721895822875	CIA2	chloroplast import apparatus 2
AT1G31550	-0.121785358138341	0.0377305668678455	0.336747861790081	-0.073753667607476	0.122029683081374	0.651069100313147	-0.290266094406669	5.75531298656149e-08	8.60862007874525e-06	-0.163190669361222	6.5917069658784e-05	0.00245660930564805	1.07119803815126e-27	1.11	11.62	25	30.2792100542884	4.02833123783677	27.3370881245209	4.29499533880605	37.8346732237304	1.72131168696485	35.5754429749529	1.4660947610046	44.7408176524072	1.33004377422544	36.7162901661259	2.27759035986568	AT1G31550	GDSL-like Lipase/Acylhydrolase superfamily protein
AT4G08870	-0.131322259489605	0.0380579504820562	0.337118420965594	-0.103633413382852	0.0800140582358296	0.573409589209851	-0.440960381288771	1.26419192383937e-06	0.000133391847839842	-0.22337768210367	0.000936033686547953	0.0213819312114582	4.00887057943165e-66	1.63	56.04	173.1	45.7591023900036	8.91035032849133	38.6645818970843	8.29083949308096	35.9243375260345	8.06129859551068	31.4880091872043	5.84306581956132	20.3625956307185	4.02185687988083	14.9340277738081	1.60554905173329	AT4G08870	Arginase/deacetylase superfamily protein
AT5G08000	-0.0834110586805455	0.1150141049665	0.510436808628257	-0.0945247788965059	0.0138753079882147	0.233918849670452	-0.201079121494282	8.16420824936327e-06	0.000690230562647256	-0.127426751449971	2.35423004735671e-05	0.00105269303881333	3.20356971329198e-29	1.04	67.99	140.1	135.487816260212	9.97562791693874	124.895692909285	8.92653422681711	157.033781286174	3.94130182600949	147.696835457329	4.05068719073899	199.244950426262	5.20648705606149	173.10488763859	6.02275905335566	PDCB2|E13L3	glucan endo-1,3-beta-glucosidase-like protein 3
AT5G22090	-0.16550506975814	0.00720515163914234	0.150494238972716	-0.196335282009365	2.53854852386497e-05	0.00180547652956449	-0.376683152770363	4.00647717647831e-10	8.94002689961223e-08	-0.24398637150004	1.7531275054753e-10	2.79653384216099e-08	1.87146636179248e-11	0.61	21.4	32.65	23.4165229708633	1.06853659281852	20.6610808144567	2.43688879717494	29.4733174122398	2.65280932732757	24.9724451247238	0.758514374763794	25.6654480362922	1.91084456084615	18.7791745426705	0.777848749117676	AT5G22090	Protein of unknown function (DUF3049)
AT5G16030	-0.153357606395465	0.0136992412726896	0.207733935830567	-0.192556955932514	0.0132213848659802	0.227960380097718	-0.32002012152977	1.04975844557574e-07	1.51034984279736e-05	-0.217349928451596	7.28763297748734e-07	5.08415358139498e-05	1.3223965763235e-13	0.67	25.72	40.94	26.9626173273219	0.970351003548901	24.6545880247202	1.54586660099889	26.8893327640548	0.591156274272102	25.8001780743057	0.806907299915553	24.6317093652798	0.659392433506747	19.7848668593783	1.30448923743369	AT5G16030	unknown protein; BEST Arabidopsis thaliana protein match is: unknown protein (TAIR:AT3G02500.1); Has 30201 Blast hits to 17322 proteins in 780 species: Archae - 12; Bacteria - 1396; Metazoa - 17338; Fungi - 3422; Plants - 5037; Viruses - 0; Other Eukaryotes - 2996 (source: NCBI BLink).
AT5G03350	-0.179867482031444	0.0084640971857583	0.164572325408825	-0.135366177526976	0.00688528357282138	0.148651367318043	-0.26893433781763	7.7003771420461e-07	8.62664061472926e-05	-0.192697878002239	2.00687829627162e-06	0.000122808841259345	1.02932134990954e-12	2.29	7.46	36.59	72.4202007200836	11.6562330906022	63.93964303402	11.892160822239	60.878729019258	4.1833697222486	53.9470564743817	4.37071319443242	45.8687765284691	5.91591923631709	36.9662684457348	6.73187806826451	AT5G03350	Legume lectin family protein
AT5G47910	-0.222851052530064	0.000568007105916952	0.0309366255938386	-0.154896063949715	8.16755606843322e-05	0.00483731725837849	-0.277573773856027	5.29166252514047e-09	9.66603378975251e-07	-0.216698113708908	4.4495676488671e-12	9.49932509939341e-10	1.695653101974e-06	0.56	21.25	31.28	24.4811213845145	1.179642451148	21.3560756605746	3.15336643721608	28.1788654377812	1.36570736931334	25.1794375533781	1.68106969920869	26.0726413075324	1.38051364468917	21.0922294105547	0.891864656480155	ATRBOHD|RBOHD	respiratory burst oxidase homologue D
AT1G14350	-0.201580924179796	0.00471941898213192	0.118438731503244	-0.193326660164801	0.000106516005699626	0.00599805903435563	-0.251379380178468	3.44581355861882e-06	0.000325713133702361	-0.217228985434241	3.44687902195099e-07	2.58233991950598e-05	9.14582652306218e-07	0.48	19.66	27.36	19.8458568178035	2.82966158488706	17.8477063155561	1.36328826214312	23.4635773410975	0.670776208461921	20.9626878540294	0.823031165786447	24.2536472339802	1.459957645094	20.2057130788079	0.35338806660508	AtMYB124|FLP|MYB124	Duplicated homeodomain-like superfamily protein
AT4G23990	-0.105397640079275	0.134482726120129	0.544383005389735	-0.256359672699843	4.28679664859847e-05	0.00278091931757417	-0.29958877150159	1.62241531689905e-06	0.000165419521243231	-0.225542461198423	6.48704322729178e-08	5.82889574037097e-06	6.43351039129095e-16	1.39	11.44	29.91	7.97881825808288	0.37515948085097	7.34003160840756	0.465883608914699	16.8090506750527	1.73471596104137	13.851710443341	0.745431623139316	10.9682060333803	0.641004171220315	8.93313588506565	0.241125309682015	ATCSLG3|CSLG3	cellulose synthase like G3
AT1G69870	-0.0839527431623072	0.161133608279501	0.580066533988823	-0.117828484219045	0.0104307488184912	0.194608090616638	-0.325125578248683	2.41379699411034e-10	5.81511465227131e-08	-0.175798768580737	2.10593229630709e-06	0.000128042487411871	2.09616182849973e-07	0.45	67.31	92.19	111.42972761322	9.23876376173669	105.458416748721	5.03957628361948	104.302279168089	6.17860341144084	95.1836481296053	4.24567774362149	102.112931622817	8.11263862668678	80.4636035725546	2.01655274529101	NRT1.7	nitrate transporter 1.7
AT4G22200	-0.101723110847748	0.0576160121159723	0.397093903881554	-0.174578663402117	3.0714406368255e-05	0.00210764108623973	-0.310885925165869	1.07280495144002e-08	1.84841577171213e-06	-0.19124265631538	7.25609663698733e-10	9.95312115510234e-08	1.70570301994502e-09	0.78	22.51	38.73	20.9123557923656	0.595365045836942	19.7457205725515	1.41651508342955	20.5997601760004	0.836445273636365	18.734585813294	0.998346228665499	16.4822351080006	0.934691743906997	13.3195091116251	0.357803126426007	AKT2|AKT3|AKT2/3|KT2/3	potassium transport 2/3
AT4G15545	-0.0712604554304038	0.166144556224068	0.58731880121707	-0.192350927475893	2.36063634873812e-05	0.00169661419264175	-0.245996780282638	1.39989646280051e-06	0.000146012955581679	-0.168334699101195	1.38847613647214e-07	1.17334498270803e-05	2.65451408693553e-21	0.88	157.44	289.35	126.971427987508	4.9922731972771	119.913509229681	1.83279292912796	114.634941937574	5.47057229461085	101.843042643844	6.98505935471089	104.477872408062	2.64613472391952	89.3475181283592	6.48686263604368	AT4G15545	unknown protein; BEST Arabidopsis thaliana protein match is: unknown protein (TAIR:AT1G16520.1); Has 30201 Blast hits to 17322 proteins in 780 species: Archae - 12; Bacteria - 1396; Metazoa - 17338; Fungi - 3422; Plants - 5037; Viruses - 0; Other Eukaryotes - 2996 (source: NCBI BLink).
AT3G05650	-0.276326134443608	0.000504436245191773	0.0284938873675749	-0.0865686211138954	0.342561948028987	0.81380893725392	-0.455856679598118	1.99365952278507e-07	2.67356616693488e-05	-0.267581501620693	5.02634429380442e-06	0.000277661517272923	3.17946970926541e-25	2.24	2.39	11.29	10.7672962865802	1.57377722011221	9.40441315208943	0.899374688895988	5.60317608975449	0.800171672752701	5.05668239977498	0.603175887934449	4.90611701976476	0.542297127140412	3.40723921990697	0.142799111958375	AtRLP32|RLP32	receptor like protein 32
AT1G19670	-0.269050231603852	0.00025100602918081	0.0171484871879224	-0.127423024937842	0.00765369893845714	0.159079278316745	-0.422233108962093	8.28996860059477e-14	3.17856077766185e-11	-0.271912368062351	2.71188216952646e-07	2.06992425595522e-05	2.08060909319501e-17	0.83	58.59	104.36	88.6270475709548	12.4857606904554	72.4368477164756	14.6091935649541	66.0907497620181	10.8353915410762	58.749321636944	10.2197927351503	64.0223254320617	3.00201717819903	48.8043848236261	5.36949270489991	CLH1|ATCLH1|CORI1|ATHCOR1	chlorophyllase 1
AT3G22142	-0.276010387861191	0.00395510525692872	0.107482375964804	-0.130978818209668	0.0545027887493052	0.476421287128125	-0.5183832375285	1.82164462714991e-14	7.62932795152337e-12	-0.307879364590806	1.67117766419614e-06	0.000105447596882634	1.34449560724436e-38	1.57	6.45	19.13	32.82758573774	7.34223843343852	28.6619963654776	3.19139439159032	29.5425262108513	5.97013865178959	27.9304824793811	5.79638623030071	31.8168290366506	5.14693256277977	21.1476969714398	3.67206775190669	AT3G22142	Bifunctional inhibitor/lipid-transfer protein/seed storage 2S albumin superfamily protein
AT5G10170	-0.263367918417174	0.000332738107101303	0.0208510520956023	-0.23817693826559	0.000125495866835053	0.00686857238303035	-0.389986382145369	3.45380360198959e-08	5.372736883255e-06	-0.295719777849692	2.47521341336191e-10	3.84975357100449e-08	3.9902458243059e-52	1.65	6.84	21.49	12.3883446270715	1.38370880471458	10.5750053048094	0.669930876670707	12.9572795932166	0.35338717174592	10.8416782402426	0.996990829701673	13.57987570698	1.80901935936775	10.2148542342763	1.05570835255128	MIPS3|ATMIPS3	myo-inositol-1-phosphate synthase 3
AT1G20510	-0.319215829174459	0.000997048548465783	0.045985087598937	-0.175857414389081	0.0016990756983867	0.0546489387005932	-0.367619254299465	3.62421128737128e-07	4.48463199436856e-05	-0.28309322907502	1.2965760187758e-07	1.10555493925285e-05	3.11417898513335e-12	0.88	6.99	12.84	21.0952780042737	2.55817700972225	16.9646080954311	4.74089494173343	16.5071497626122	1.3732511845155	14.3411015692685	0.269015322171343	13.7164496235882	0.738321114988799	10.6619457023304	1.27705860470353	OPCL1	OPC-8:0 CoA ligase1
AT4G00780	-0.108311022208327	0.275491466429971	0.653451447126883	-0.289644914312958	0.00111338251066076	0.0403283683669177	-0.43873746015486	2.40690419197427e-06	0.000234850010100773	-0.274045199533688	1.1708928207723e-06	7.6428346558641e-05	5.87711641713066e-75	2.14	8.26	36.53	9.82435312327537	0.97885729997962	9.15681275048157	0.726666027758177	9.62280621478788	1.36354240040954	7.76291124432975	0.504719574217162	10.0134034831239	0.373569168001126	7.22953790448933	0.624842046550489	AT4G00780	TRAF-like family protein
AT1G23090	-0.198635758062986	0.00138616073045482	0.0576255832648562	-0.2320315353212	0.000544758529134249	0.0228539173412987	-0.382909452504968	5.60129673676587e-06	0.000509917759506844	-0.264207270108147	4.31443781880051e-08	4.02974169167834e-06	2.27162984993489e-30	1.34	12.68	32.1	14.0633823151031	1.15465892204249	12.7003182357112	1.1329423587644	9.26601097963732	1.4416878744979	7.79149667617831	1.89166376334342	6.94914006704466	0.483416865780522	5.26960083953592	0.199771555712375	AST91|SULTR3;3	sulfate transporter 91
AT4G26530	0.146692208922392	0.113614366338398	0.507513318148825	0.0356224867754726	0.423305690385973	0.862599655458229	-0.268098073356308	2.12372783799028e-08	3.46193071458738e-06	-0.0270013971088111	0.670237264401026	0.883086547513616	2.22178662833999e-27	1.15	30.97	68.81	62.5276493185282	14.4724343506465	75.181965412675	20.3096953583892	103.47169838595	12.086258779922	109.297123588998	8.32259659441893	89.2549861674489	7.61283852138684	76.5830270086942	9.45362338793135	AT4G26530	Aldolase superfamily protein
AT5G14740	0.226489826709346	0.000209920519979685	0.0151740964785316	-0.0522837356439034	0.338872305594797	0.812406136012059	-0.284673727768406	6.97249884618532e-06	0.000610329054950813	-0.0321036891336462	0.58387656172208	0.843903795170097	1.08452728009478e-08	0.52	294.25	421.21	85.9918249797424	13.3975262787412	103.38429396851	23.7032817481475	74.6454004094072	9.49614819496873	76.1606833516	11.3936622299933	52.6441361332604	6.87675700254948	44.5889894409535	3.19687523465755	BETA CA2|CA2|CA18	carbonic anhydrase 2
AT3G13640	-0.404972354171633	0.000116890476655499	0.0100702248379058	-0.307804174601725	0.00139378585795205	0.0470527633702454	-0.516918132457986	1.99053907081425e-06	0.000197048891362823	-0.400542780471083	5.13114244469764e-12	1.08726610876675e-09	2.42749406190438e-15	0.81	4.6	8.06	4.20552321924181	0.39520768534961	3.15599454767386	0.395037057592244	4.35911936642598	0.112969074754488	3.44948701003432	0.34545799404246	3.89910939309391	0.622699699574087	2.72651374910445	0.151816428344685	RLI1|ATRLI1	RNAse l inhibitor protein 1
AT3G59270	-0.489552589444923	0.0796108578125902	0.458101041931048	-0.492102778520073	0.0772062179724613	0.56499973715056	-0.935392653977097	5.99686235883297e-06	0.000535254373752492	-0.665730648458862	6.05766616501653e-06	0.000326378317057835	7.97558070470768e-53	2.96	1.06	8.33	1.0916903325962	0.438438483429439	0.700251505626458	0.179296197612223	1.28507283112546	0.440766780451465	0.73931427824158	0.169357017753173	1.95449365074112	0.285440677344479	0.986477818247118	0.150714046346873	AT3G59270	FBD-like domain family protein
AT5G24150	-0.285991889491887	0.00705002480582367	0.148606371812894	-0.181961005816657	0.0179867808346409	0.274145813530207	-0.852561947960152	7.43250809183225e-06	0.000639408770991465	-0.364005642577008	6.1150166704604e-05	0.00230890669336506	3.30062795579613e-48	3.08	29.22	246.24	6.76181822079125	1.34784002900696	5.59216256259672	0.861386393677282	8.3549268331877	1.20108755352399	7.13769451355288	0.142142940412391	1.67520745385408	0.241582240595151	0.942841118954245	0.280957209225127	SQP1|SQE5	FAD/NAD(P)-binding oxidoreductase family protein
AT1G02460	-0.557782791018835	0.000133791062286446	0.010941313260894	-0.210665097860747	0.100430308276642	0.610744188230546	-0.762146988608127	1.00608018451944e-06	0.000108295701538613	-0.495261467236855	5.91064534828821e-08	5.34480458660177e-06	1.2707672162146e-14	1.73	0.72	2.39	3.50546449296535	0.39636584048549	2.5261093256821	0.641127567130662	2.45253761801363	0.293268834437764	2.11807460441004	0.173852992279604	2.24967075163453	0.220951788542883	1.27461629785196	0.135640539592124	AT1G02460	Pectin lyase-like superfamily protein
AT1G52000	-0.421994076024498	7.22362352758708e-05	0.00709787791153376	-0.356968569983266	2.77297684487682e-05	0.00193689950410309	-0.724976693370782	3.73572310483955e-13	1.27121987603809e-10	-0.49169697149079	7.13157247689325e-12	1.45679042380509e-09	1.46014081477378e-29	1.42	19.03	50.78	11.2297428517805	3.38738889063235	8.37222537542232	1.62053519190267	11.7672029109895	3.19583913407232	9.1079908842441	2.66317980775338	7.63612386398714	1.51057303561847	4.45541055803984	0.428552866553908	AT1G52000	Mannose-binding lectin superfamily protein
AT5G33382	0.295694744949947	0.163783065148163	0.583030256340837	0.295754680996913	0.325608740177606	0.803719289350521	-1.03923991479017	9.51864456923377e-07	0.0001036504244433	-0.179068158698261	0.406907238401574	0.732652957661792	4.50088897679579e-21	2.41	0.06	0.35	0.491773564690153	0.213188328420002	0.655137541247477	0.0929821608878583	0.326186248701175	0.209926040191891	0.29605983134638	0.0137241377732137	0.460811196250989	0.0927124252751324	0.23619911504433	0.0668742364976002	AT5G33382	copia-like retrotransposon family, has a 2.3e-126 P-value blast match to GB:AAB82754 retrofit (TY1_Copia-element) (Oryza longistaminata)
AT4G13410	-0.121503601367307	0.300216627835295	0.678049030187613	-0.219778499908871	0.0504712655032268	0.460911265483281	-0.859222742018261	1.10287998743622e-10	2.77997239796077e-08	-0.363518619339363	3.32687726648058e-05	0.00140990079260373	2.34811852010764e-15	1.22	2.65	6.17	4.20164525269574	0.346038293042106	4.09985932401775	1.03534320624588	4.11141613939501	0.52331230164835	3.50448806028668	0.269499119179805	3.25916695000221	0.273735722381247	1.77394389806969	0.209698325792797	ATCSLA15|CSLA15	Nucleotide-diphospho-sugar transferases superfamily protein
AT3G28220	-0.0413006481727414	0.466313673651414	0.801988062420681	-0.0737579119180764	0.154319783596187	0.713357892670716	-0.505305935556425	4.63731626079936e-09	8.58786806583272e-07	-0.20315635858474	0.000821120975359861	0.0192526085667778	8.317823946231e-14	0.75	92.4	155.66	59.3802346248927	11.3142483913811	57.3738502536016	12.3103379060986	72.2869604351802	16.0200738345373	69.4750126980697	16.760606485636	62.2448953871964	14.0091244108558	43.5424857104242	4.41323121242119	AT3G28220	TRAF-like family protein
AT3G16470	-0.0333019642187942	0.599394231964944	0.868082641146682	-0.180787785737495	2.66547455713262e-05	0.00186658399050895	-0.485611565167164	7.70387843449577e-28	1.31076676638924e-24	-0.23283478824583	1.82554494299003e-05	0.000841469531026932	4.63373947290349e-08	0.49	119.86	168.06	109.168293185896	14.9456260734719	100.906567561704	20.9021953299283	158.618049043265	20.732169777634	135.610964331978	18.2156588417661	192.715803123565	16.6214165418011	136.7846385752	11.7558365530923	JR1	Mannose-binding lectin superfamily protein
AT1G52030	-0.0971155362773941	0.105592606614952	0.494667416351442	-0.163511585749548	0.000135374714379337	0.00736497773787663	-0.424791079272519	1.44020995702359e-21	1.50795521769435e-18	-0.229792754662193	1.56919165702482e-08	1.63807455549863e-06	2.54077656880547e-07	0.49	95.94	134.78	90.6154042586627	11.0616662698926	83.5738435617235	8.88056277890385	122.510545314004	13.7339656429171	104.616967038103	8.77517787841439	139.0588292966	10.684147803042	101.031689033806	7.78405759299103	F-ATMBP|MBP1.2|MBP2	myrosinase-binding protein 2
AT1G80050	-0.0978979425654937	0.126463353497037	0.529430017176775	-0.200266018301255	0.00156723710446406	0.051260853365291	-0.445158397597169	9.53910407742514e-10	2.01304674650965e-07	-0.24624912637156	7.50008578149503e-07	5.21681509867784e-05	1.34130293518785e-109	2.67	35.52	225.33	32.8741890402196	1.02970791339237	31.0732254930875	1.94585695818959	36.8678558051512	4.59263683514467	31.5005743513286	0.990474271194382	37.9587529864857	0.593409070120857	26.7300125685619	3.35459433384363	APT2|PHT1.1|ATAPT2	adenine phosphoribosyl transferase 2
AT1G10682	-0.0168636219125086	0.824115537150141	0.956267228113734	-0.17111282562581	0.00684917243329621	0.14798872494126	-0.392886020324806	3.960105630763e-07	4.83434778413727e-05	-0.188215961400179	0.000269228335121702	0.00792994745585643	3.23916293990312e-14	0.64	61.48	95.87	76.5992915508485	9.70521068274873	76.8792537242132	2.10153727619141	67.4260767952638	5.56398796627038	60.2426278587979	3.15107181731468	63.9633337012023	4.90183663933846	49.0193162195468	3.85382955069173	AT1G10682	other RNA
AT3G23290	-0.121494435073902	0.118154589647805	0.516662842113749	-0.231584105300832	0.00218612846801085	0.0667098933964742	-0.192290581948281	0.0242433066989968	0.354949505359731	-0.177924973304184	1.55227312184196e-05	0.00073214689404619	1.80229977435769e-09	0.85	14.38	25.98	18.5464493769229	0.842028630388752	16.7327865211969	0.687297969266629	16.7940022547627	0.785035065368028	14.27901930411	0.3237277267463	14.431488804021	1.23324391918484	12.5085274072551	0.809902872329827	LSH4	Protein of unknown function (DUF640)
AT1G07650	-0.128830957938648	0.0224176614784563	0.262234950411523	-0.152457009545208	0.000209710421724369	0.0106655518206969	-0.107843714303649	0.0231882648117074	0.345136212667639	-0.130228157654483	1.29365314173961e-05	0.000633310125975075	7.37631000362666e-25	0.85	17.88	32.18	28.3086595934	2.34095416183718	26.1155858272897	1.17836759525133	22.2580168267154	1.16851039896933	20.3361969204023	1.45943940430937	20.3595603437816	0.867030646987738	18.7436216823789	0.103561639002813	AT1G07650	Leucine-rich repeat transmembrane protein kinase
AT3G22550	-0.14064648654703	0.0059104909028739	0.135049048186099	-0.152391957345278	0.000163538996807707	0.00862494156806743	-0.136692654298947	0.00432959214445604	0.115666817417593	-0.142911389326069	1.02312076988546e-06	6.82473572304868e-05	9.20873713708055e-46	1.68	40.19	128.33	50.223917429147	3.82068096982248	44.5260150623819	4.79208425049633	53.9660536288992	1.7676699219274	48.1786203715728	2.83329420263163	52.7770109199398	0.672557423571455	48.3964390957188	1.46613359004845	AT3G22550	Protein of unknown function (DUF581)
AT3G28040	-0.113926384767668	0.0318730679245224	0.311410331262559	-0.123581640303458	0.00243113876648386	0.0723277024525498	-0.103515693480909	0.0275425331884659	0.377918538805246	-0.113774390106736	5.2561132604873e-06	0.000288112123394356	2.69817597311106e-07	0.44	24.34	32.92	21.6657827887331	1.05696308980815	20.0218626353229	0.676065548450005	22.3741546704013	0.9945060191429	20.5165870025937	0.680935901199317	23.0263585705684	0.20831649703553	21.2107723267207	0.286536293795439	AT3G28040	Leucine-rich receptor-like protein kinase family protein
AT4G01070	-0.154209340294016	0.00880543944867488	0.168341813772433	-0.157389728023841	0.000395831811483269	0.017839212216864	-0.0795222929973059	0.121385582193281	0.696828128499748	-0.130920948155943	1.6117402058657e-05	0.000756425643063646	2.69741723025149e-06	0.69	40.63	65.69	26.9011298545537	1.60399241641727	24.4302349588134	1.98641591872282	33.945115484405	1.2775827784491	29.7222489741903	1.60298831470027	29.4198419405844	2.41585758231036	27.9241446924883	1.59410749622995	UGT72B1|GT72B1	UDP-Glycosyltransferase superfamily protein
AT5G46330	-0.229477986625751	1.11700097113514e-05	0.00171917744973136	-0.160278213826428	0.0306572979553932	0.366585579886052	-0.131696618747373	0.0691683390436725	0.586960627738745	-0.184730144488652	1.06681136113832e-06	7.06084890166931e-05	1.62246959205023e-06	0.97	2.78	5.46	20.443782580474	0.971796521798812	18.2108099179988	1.11717956976077	6.32166415638377	0.567838223161639	5.7136652188194	0.549381584537164	4.84267518493938	0.240490607173249	4.25787529209551	0.179786173040327	FLS2	Leucine-rich receptor-like protein kinase family protein
AT5G59732	-0.225686474747879	0.00135167373033224	0.056708198340248	-0.0759514780067575	0.153784397439069	0.712459975788275	-0.231023142541288	0.00191429558567039	0.0631829212886553	-0.176642925376114	1.66541761316647e-05	0.000775210946036864	1.24812570083249e-17	0.72	27.06	44.65	30.2860985391333	2.50543039662089	26.4863850250306	1.46515330690195	22.687566161117	0.923285631888889	22.2779940297867	0.500283202033601	14.7696768629215	1.16283717099343	12.604604307593	0.594254183054462	AT5G59732	other RNA
AT1G72500	-0.194838493379706	0.00166092735618726	0.0656605567822599	-0.0896676717903594	0.0760372128695111	0.561257383967356	-0.196981559512387	0.000697974902626078	0.0281913512970174	-0.159688057424349	2.51567421395593e-06	0.000149435258642395	9.23596211514295e-09	0.54	16.58	24.09	23.5339584265118	0.819904457027142	20.5108269296862	2.33143756519401	21.2436474516708	1.13063992256524	20.317537751406	0.631512632753661	19.811867841147	0.965084156022164	17.3883440046447	0.566778626765951	AT1G72500	LOCATED IN: plasma membrane; EXPRESSED IN: 23 plant structures; EXPRESSED DURING: 13 growth stages; CONTAINS InterPro DOMAIN/s: von Willebrand factor, type A (InterPro:IPR002035); BEST Arabidopsis thaliana protein match is: inter-alpha-trypsin inhibitor heavy chain-related (TAIR:AT1G19110.1); Has 1407 Blast hits to 1406 proteins in 307 species: Archae - 6; Bacteria - 522; Metazoa - 484; Fungi - 59; Plants - 110; Viruses - 0; Other Eukaryotes - 226 (source: NCBI BLink).
AT5G46760	-0.148630355036026	0.00566552831866903	0.131917267620133	-0.0624003388032057	0.121759011516249	0.650776000941654	-0.167836842446093	0.000363012252585301	0.0166648946916183	-0.125399028100324	6.51910492394032e-06	0.000345342285840227	1.52928768711272e-52	1.44	44.74	121.34	45.5382037417526	1.58647145244662	41.9392710228734	3.04898571826588	43.8769330887907	0.893083981669574	42.6913642412003	1.29535505744779	41.7390882062388	0.428325866992245	36.9110610645963	0.556653928234658	AT5G46760	Basic helix-loop-helix (bHLH) DNA-binding family protein
AT5G67385	-0.167008210368783	0.00231905020491079	0.0806022970217632	-0.145740304567449	0.00181366426606887	0.0572211169610517	-0.208710890298205	0.00109365392075793	0.0398561454950377	-0.171217890678085	1.07197293548862e-09	1.45634447513224e-07	1.02285775178747e-15	0.72	33.37	55.12	22.762143974418	0.831861547520981	20.5119314274204	1.16113946832058	23.0656636200357	0.984699609563269	21.2465209197395	1.04191706761788	16.9030882303971	0.853063950224522	14.9034463164049	1.01149668569715	AT5G67385	Phototropic-responsive NPH3 family protein
AT5G11060	-0.120104054540684	0.0430959243103958	0.353701600481607	-0.141161631579007	0.0160261400533355	0.255468748691909	-0.190007007172541	0.000351749661847562	0.0162851718443472	-0.149536792099074	8.09819696041661e-06	0.000421901830362087	2.96580577460757e-07	0.9	19.78	36.91	21.9046924305047	0.838630108604229	21.0117230168592	0.993076514365888	23.7614600256357	1.48947088833471	22.1621409819364	0.108588272093969	24.801317009917	1.62465159280732	21.1506425008571	1.08387694194837	KNAT4	KNOTTED1-like homeobox gene 4
AT1G15960	-0.158980418015506	0.0103705703763202	0.183772410109746	-0.15709137535096	0.00393549802538902	0.103212391571369	-0.182565759634865	0.00407395633260333	0.110349210463175	-0.165529235096205	4.07518857795131e-07	3.01330480422785e-05	1.56723664898316e-26	1.06	14.24	29.72	18.4770766735652	1.01999262127732	16.2165662633697	1.19724970870579	16.0371404029508	0.941312141746117	14.4035235881293	0.511355193536396	13.1513602987423	0.582164733729664	11.6602285569114	0.301771804828027	ATNRAMP6|NRAMP6	NRAMP metal ion transporter 6
AT1G76520	-0.13944699762544	0.0216645351598821	0.259066610755185	-0.12107834244218	0.0264858563279746	0.338332657705012	-0.193031553265132	0.00452369864950825	0.118640316315571	-0.149755494158707	1.65264031402181e-05	0.000772719284486725	1.91049409289276e-13	0.84	15.16	27.07	20.6490199001043	1.80848406745661	19.1835788461526	1.59996908942805	22.6912508890754	1.25258116043274	20.4795061175123	1.16643921501618	15.9442983686447	1.08712098138343	13.5772740171752	0.528700684848424	AT1G76520	Auxin efflux carrier family protein
AT1G27360	-0.0825076656023293	0.106455504628974	0.496333390880766	-0.138740621262379	0.000651206637684478	0.0265053718059624	-0.199223184604108	0.000140465210055466	0.0076021558913319	-0.138119960950681	2.68907499064876e-07	2.05804839041727e-05	2.38575737476889e-10	0.62	34	52.1	34.0666335422317	2.47617781123878	31.9863465159242	3.38960893981276	40.1291203490124	1.06976009896933	36.1724741634547	1.08230415245633	30.2507409186605	1.56784750915769	26.2860487070265	0.585573879123101	SPL11	squamosa promoter-like 11
AT5G20700	-0.0830778109656116	0.161452172417564	0.580086677373604	-0.151795994903024	0.000154495067414974	0.00824104450423896	-0.171454864974835	0.00124465858135634	0.0445833428424521	-0.135561019608962	1.27247493524168e-05	0.000624018191904185	2.44176993567773e-15	1.05	141.82	293.65	193.219007486087	24.9713668289427	180.324894835658	17.3701731824286	190.369627723735	13.6532924188515	170.929579189056	12.9935429582932	223.547211094632	18.0129389811253	199.23022474157	5.9514894656653	AT5G20700	Protein of unknown function (DUF581)
AT4G31910	-0.233546136535624	0.020827547283504	0.25427428047187	-0.144159716860417	0.0937949638634854	0.606992671966746	-0.294258234901406	0.00137195501551346	0.0480851921203506	-0.220952185851248	1.56898229403268e-05	0.000738800717359268	4.91889468313915e-06	0.59	11.77	17.78	5.75022120364143	0.776804310330084	4.95616526043629	0.164500206745743	7.15603338675026	0.564362190023375	6.50383860339872	0.390488544903222	6.88543317678801	0.621496831831749	5.55802219388598	0.46338059997839	AT4G31910	HXXXD-type acyl-transferase family protein
AT3G22760	-0.139994978497178	0.0512894996889143	0.379353977720706	-0.199783499656648	0.000975799126834141	0.036476109305993	-0.191712667316561	0.0100699754996689	0.207677987142035	-0.177312947254165	8.36221778558455e-07	5.72136895912982e-05	2.67148382891745e-10	0.51	11.04	15.76	8.71134982302041	0.317834015380068	8.09222602415605	0.633939344038	10.8427623602735	0.248126688522161	9.57884647158901	0.428004254101296	9.68126838064587	0.376484401062495	8.58023007104974	0.488146759494363	SOL1	Tesmin/TSO1-like CXC domain-containing protein
AT2G46810	-0.165874250650613	0.0146800066908252	0.214149873962645	-0.221973425303898	0.00155860535122376	0.0511721365150094	-0.251812993451198	0.000334454656108939	0.0155638617149635	-0.212292479116075	1.40936735624221e-07	1.18746518436621e-05	2.25146882206705e-12	0.56	24.36	35.9	14.8693814699477	1.34952927306783	13.6140533608775	1.04790672598231	14.4593765060568	1.31982269084317	12.8237972939487	0.267462601968547	14.0801136480936	0.621890378701554	11.603334059626	0.621752682789919	AT2G46810	basic helix-loop-helix (bHLH) DNA-binding superfamily protein
AT2G05940	-0.147442703111514	0.0655254416144504	0.418836910515512	-0.219140683708768	0.00428883412450082	0.10943470853706	-0.274602320648132	0.00112770443588469	0.0407155144006485	-0.215089203687645	2.13242637057937e-05	0.000967222274220936	3.4066885435977e-06	0.73	11.21	18.61	7.70272833791526	0.964259418969651	6.60476643942221	0.814020431467105	9.26984033545973	0.50770430416724	8.13067248869451	0.643906100150505	8.53105017934368	0.766561929363272	6.89581026845438	0.271381872591998	AT2G05940	Protein kinase superfamily protein
AT5G21100	-0.138369509942634	0.0171346216882955	0.231127570542858	-0.1724521313322	0.000330320790378896	0.0155809863662142	-0.233515161265382	1.89552619328752e-05	0.00144543164033239	-0.179156864001714	2.44726576361396e-08	2.42117296487996e-06	1.35930611794775e-20	1.24	37.92	89.61	22.1185986178959	1.28578533208265	20.6500351289028	1.57904270608876	26.8901259705431	1.04997280035749	24.0624703982061	0.767338325290877	19.3404848716413	0.8366755845312	16.4404875350421	0.426745412096015	AT5G21100	Plant L-ascorbate oxidase
AT1G08940	-0.299308632652	0.0245354385128712	0.273463333400578	-0.472950500020792	0.00122520410180437	0.0428444932450436	-0.263544730615236	0.102316644231554	0.666631010161125	-0.346387479082782	1.236184396421e-05	0.000608322699341036	8.81181800597598e-14	1.02	3.46	7.03	5.2393675873629	0.600044481489179	4.41557196071421	0.49313006694161	4.66377241900387	0.692254101239877	3.33080197765027	0.453593207121668	4.62226767577249	1.20521807604391	3.72822902797314	0.14500737431976	AT1G08940	Phosphoglycerate mutase family protein
AT4G02420	-0.160601078805103	0.0670918940358439	0.424100029766031	-0.324789212685969	0.000102804239702162	0.00582507591391235	-0.328962098972529	0.00148406093827609	0.0512048047182381	-0.263805993963197	1.08298455100934e-07	9.37508028699972e-06	7.57617309544254e-19	1.28	7.31	17.73	6.42644902688879	0.240601005356185	5.79337493149832	0.551941408974788	6.25936103155271	0.482147626806389	4.965993429385	0.0874183737265021	4.24497609793241	0.227841943542033	3.2689747699511	0.346258146417401	AT4G02420	Concanavalin A-like lectin protein kinase family protein
AT1G20160	-0.132573823752058	0.154740769713687	0.573573011375479	-0.346036555548723	0.000175416667483155	0.00912534210596655	-0.296170876870863	0.00843806549483758	0.184505587924469	-0.252229041811414	4.78388699385998e-06	0.00026634056334051	3.14121658972741e-51	1.8	2.72	9.5	3.86992427272211	0.232404181245816	3.55814521114189	0.0414077430209996	3.96420796081591	0.163989168336311	3.09078170145719	0.318808665850929	3.03084474172007	0.30425275485355	2.47090730265662	0.345329904941882	ATSBT5.2	Subtilisin-like serine endopeptidase family protein
AT5G53830	-0.212623781763965	0.0345968977507096	0.323402276136208	-0.349258231229493	0.00099338158931156	0.0369621860840436	-0.23914862707534	0.0220666990360846	0.336162142058943	-0.266459948103544	4.10525027637858e-06	0.000232663625444099	1.60316123684998e-26	1.29	4.82	11.79	9.35966265197934	0.877504467364911	7.79640768899963	1.41326009122919	8.48200231116077	0.524925038704375	6.55806968292998	0.735207932213729	9.4725548544251	1.11617291585857	7.86711554146931	0.369695763992683	AT5G53830	VQ motif-containing protein
AT2G32530	-0.195873248071079	0.153839709205772	0.572168432446556	-0.324884519250887	0.00225058071056472	0.068006465989685	-0.479918774125134	0.000142398343119424	0.00769148828321442	-0.337724230736267	8.18966020811159e-07	5.61684086833624e-05	6.00855097409805e-62	2.18	7.58	34.37	2.16937738231127	0.538217990623374	1.89974924368473	0.186647771436255	2.80017175504964	0.299740159622875	2.16030157502481	0.182475974181355	2.46699135044154	0.202783064966309	1.75293276138666	0.257329681021159	ATCSLB3|ATCSLB03|CSLB03	cellulose synthase-like B3
AT1G49470	-0.387964263027922	0.00108208864595187	0.0488383863995016	-0.377667317586982	0.000178660299287556	0.00925880727484335	-0.295607358590833	0.0112744370086068	0.223055231602692	-0.359155539786412	3.78940140239428e-10	5.54619914533934e-08	8.60274148981824e-13	0.97	3.11	6.1	5.55581706381024	0.93801235930226	4.39306664811136	0.348915125373827	6.98426816444253	0.762195653950814	5.29596299992915	0.378249636429188	5.49953965252812	0.118972610138934	4.30281590648671	0.309036717680161	AT1G49470	Family of unknown function (DUF716)
AT3G19270	-0.468233403615159	0.000178037596573861	0.0134366886934917	-0.421721004113032	0.000476158010112538	0.0206746445376527	-0.28786303377092	0.0292483049195309	0.390690188824529	-0.386472181280719	4.24783880843187e-06	0.00023931177604487	2.82950279373514e-21	1.52	4.05	11.62	4.42198651801487	0.154099037478317	3.47643154405092	0.687628304616588	4.93116143592483	1.0245527149819	3.46032519034479	0.475149444857603	4.51531905522793	0.663658780496673	3.4390693329515	0.706017215178718	CYP707A4	cytochrome P450, family 707, subfamily A, polypeptide 4
AT2G43620	-0.502494773253373	1.01844495644813e-05	0.00159436103010589	-0.225916060612981	0.00829302924214372	0.168645511267451	-0.372718547595202	0.00336365570574844	0.0976213211914603	-0.37200951837269	1.48508746340066e-07	1.24756134425439e-05	9.48243313181602e-49	2.53	2.22	12.95	15.0216214194233	2.22833360229549	10.7198433752304	1.99299086186131	11.3227578554748	1.07518566429241	9.5121092685757	1.50236840341699	5.53299399648284	0.617598972697163	3.84879895122215	0.387362586252807	AT2G43620	Chitinase family protein
AT1G72940	-0.483085842625557	0.00229084725886488	0.0806022970217632	-0.28752003436488	0.0533425852856192	0.47101175128857	-0.513592999347752	0.000809272987729822	0.0317496043585804	-0.431474931689062	2.66916012610504e-06	0.000157563685281968	3.60126064890142e-10	1.13	1.78	3.9	2.41914538494463	0.553542210891446	1.60469025043357	0.521018423201875	2.19143408962218	0.291283751149114	1.80497820753518	0.0879271356042013	2.96810847554039	0.449122841898476	2.1421862631866	0.215381267716575	AT1G72940	Toll-Interleukin-Resistance (TIR) domain-containing protein
AT1G20823	-0.347699430258445	0.00192961962330017	0.0726151912086972	-0.376664403984191	0.000223946684207218	0.0112637346084408	-0.173314802415239	0.108820403022306	0.678342182617358	-0.300205938319319	6.31153414251123e-06	0.000336228331036518	2.1749997170997e-07	0.73	9.18	15.26	8.02784450724546	0.998829964370209	6.20452819569455	0.485496479586132	10.0667650123186	0.867426853249339	7.26378098800962	0.408220429614483	8.30226036737892	0.906869624906973	7.11108647920028	0.71524163809434	AT1G20823	RING/U-box superfamily protein
AT4G38840	-0.324600924598935	0.00561613449444025	0.131391648684616	-0.484388427240508	0.000282927971537909	0.0137737002329266	-0.116190984171926	0.444486680850709	0.899403425916502	-0.325979061650036	1.33946285050176e-05	0.000651245003033338	2.04870526495116e-08	1	16.66	33.3	10.9199067968462	0.922342370331032	8.64011884641274	1.75951735254937	7.81567754573723	0.467673235720501	5.71702716873633	0.837173579892682	5.00287913767348	0.431017343302115	4.66741920312671	0.577798409498097	AT4G38840	SAUR-like auxin-responsive protein family
AT2G41370	-0.363523591230162	7.44237095015269e-05	0.0072301842039143	-0.221513030896073	0.00216792802236886	0.0663026676583604	-0.23260516307864	0.023473172099076	0.348234421827328	-0.272711702420437	2.76524182692787e-08	2.67973639705768e-06	5.13849198640114e-10	0.65	7.54	11.86	7.26675174964102	0.727762939842935	5.54575425805455	0.357922531746963	7.63175955544774	0.575283960776659	6.49753108105859	0.767665613971844	6.24366808646779	0.85412523631531	5.4544164629054	0.649859123518097	BOP2	Ankyrin repeat family protein / BTB/POZ domain-containing protein
AT1G30650	-0.402413839163891	7.38641149141468e-06	0.00134012006105163	-0.270601130661065	0.00308201765424019	0.0860664459662104	-0.30668076506142	0.00287344722908952	0.0874987180285281	-0.326759065218052	3.85079640491223e-11	6.96430019879477e-09	1.61638059959481e-24	1.43	3.8	10.25	5.80631463087431	0.161213528169222	4.33757656446393	0.131954010027335	5.80147551987198	0.50140773447074	4.81716509451269	0.234874140464531	5.40069325534688	0.387477210740016	4.39580739041705	0.542011669581569	AR411|WRKY14|ATWRKY14	WRKY DNA-binding protein 14
AT4G27300	-0.369705682169841	0.000144153051564973	0.0115474181306257	-0.260548061742212	0.120372854933347	0.647542105653581	-0.33059044588048	0.124938550896107	0.705350927217902	-0.341392581378862	5.95083336321878e-06	0.000321843738124255	8.28691236810536e-37	2.35	1.2	6.18	4.23291028752617	0.841429908932895	3.32848545385445	0.513895549031976	1.03999001057825	0.134315753186139	0.876490185470527	0.0999572375567722	0.595751924091323	0.148996659340585	0.401251932945841	0.0558802033946156	AT4G27300	S-locus lectin protein kinase family protein
AT5G63710	-0.363083041587493	2.43469888130453e-05	0.00308046316726566	-0.276466945446879	0.000205959768514203	0.0104943418617377	-0.250981231006566	0.0049429618292489	0.126706449978948	-0.300720676210732	1.01692345583226e-10	1.69850144734713e-08	1.23633385683645e-12	0.66	6.53	10.28	8.13493760770123	0.957583746117851	6.4457667930965	0.326054532282203	7.57671818737946	0.254542921350027	6.2312982379938	0.357296012598426	6.48038379158679	0.591305489966221	5.3486477802637	0.290720162638254	AT5G63710	Leucine-rich repeat protein kinase family protein
AT3G11280	-0.291102475544233	4.45732456042352e-05	0.00496393754704727	-0.189959209178797	0.0147711992259741	0.242493536416493	-0.290857255340537	0.0019191456900418	0.0632087557006979	-0.262315568065766	1.33315446715118e-09	1.76885924954629e-07	4.10593606264313e-49	1.43	10.5	28.22	19.5292878786128	1.67320701303023	15.4834621099342	1.89319594686655	9.3843906774973	0.235930368765724	8.180913694184	0.536628108884116	7.06524291336753	0.512705251416436	5.65487217783692	0.269176743181016	AT3G11280	Duplicated homeodomain-like superfamily protein
AT1G01900	-0.303071262567877	0.00203559376636809	0.0752592804634549	-0.192019173778802	0.0013994577997994	0.0471859160127425	-0.2109415868748	0.000734982080252845	0.0294674774237455	-0.234612252093734	7.29240998920079e-06	0.000382736948675355	1.50145216738546e-17	0.84	6.86	12.29	13.1379333062189	1.83982614789626	11.095418006616	2.53910292354514	11.7400310757179	1.26697592312602	10.2207937266041	0.678507434972738	11.1868217252129	1.46763768429432	9.6032496206693	0.883850424345843	ATSBT1.1|SBTI1.1	subtilase family protein
AT2G46790	-0.284640110854392	5.22179424127247e-05	0.00560062005208491	-0.252315552695739	0.00729398280647399	0.153945876682853	-0.0287056698204912	0.908655159218913	0.99395484654881	-0.254313745079654	2.42899525787602e-06	0.000144892628891033	1.50208409955224e-09	1.62	5.95	18.27	10.3455615127541	0.339063375995897	8.48617943301118	0.630066001376227	6.10862527876598	0.406652350215272	5.29113786189619	1.11600899376744	0.603140401070498	0.14438441426178	0.546472994373576	0.126711671610589	PRR9|TL1|APRR9	pseudo-response regulator 9
AT5G64910	-0.222641594784721	0.000755412991731236	0.0383246191138314	-0.171207488080432	0.00693132410762128	0.149409149726318	-0.213407410974356	0.000453656164347307	0.0199513437189446	-0.201554454473003	1.06888295511967e-05	0.000540033142841065	1.01772660861025e-122	2.04	15.24	62.82	16.1179083719821	1.82583278137688	14.3233758432222	0.634490512286059	16.1446741287179	0.888697752514087	14.4666764845678	1.75600823849581	16.8435478339749	1.49075285268252	14.1112264989904	1.34366740588677	AT5G64910	unknown protein; FUNCTIONS IN: molecular_function unknown; INVOLVED IN: biological_process unknown; LOCATED IN: cellular_component unknown; BEST Arabidopsis thaliana protein match is: unknown protein (TAIR:AT5G10010.1).
AT1G68170	-0.209367389596266	0.191516285437646	0.620333430580486	-0.408034285848323	0.00623473782538685	0.139571249794377	-0.564412244379581	0.000115478438116714	0.00648179282649756	-0.392401488922843	8.46307015372142e-06	0.000437705672030539	7.76116162447569e-12	1.13	2.56	5.61	3.7229673154507	1.05095072111144	3.11893488739635	0.144158467404867	3.6991357926377	0.802164123906945	2.49307852587342	0.416848211205355	4.87822348409677	0.836047332866069	3.33501070478055	0.0767510296552055	AT1G68170	nodulin MtN21 /EamA-like transporter family protein
AT5G64700	-0.373034881535485	0.00217316534414922	0.0778248859716498	-0.371666511725417	0.00159517534622137	0.0520499807415197	-0.462066067545424	0.000552496173241751	0.0236174725676812	-0.399256505415076	2.48117526059668e-10	3.84975357100449e-08	8.91303073947712e-10	1.06	3.36	7	4.94326918145005	0.473748242897685	3.88547313947849	0.570007148430688	5.043867376606	0.545611200559062	3.68963716787066	0.499725939760491	4.31241708788379	0.641803505421794	3.02449155686644	0.538153669334319	AT5G64700	nodulin MtN21 /EamA-like transporter family protein
AT4G31690	-0.344093144294308	0.00384494031197722	0.105335984786928	-0.38942081371912	0.0185062737110081	0.278011463873125	-0.453634182375018	0.000223118305268854	0.0110636605179126	-0.394565027868656	6.03028338207846e-06	0.000325520658461475	8.49075015663006e-19	1.21	3.02	6.98	4.2064277263407	0.653411901323571	3.26263907277295	0.388889035081965	4.47557863825806	0.781718905693075	3.69497204875413	0.817433974436168	4.31858236194704	0.494300721342575	3.1471342110444	0.183079482605517	AT4G31690	Transcriptional factor B3 family protein
AT5G07690	-0.653009175343083	0.0425270463839641	0.351299535966485	-0.810662828155438	9.45614715407008e-05	0.00548315997717214	-0.915623168843335	0.00329593675593621	0.0966867309341071	-0.771155528152439	5.13809297416937e-07	3.7028175611311e-05	1.19252890549082e-06	1.25	0.94	2.22	0.749881418666808	0.231555212468662	0.397753545664344	0.172685252303313	1.30788692082208	0.308867894570987	0.731601100276783	0.0724063355171758	0.559513359878344	0.0712581730721732	0.319151654109107	0.176202408214351	MYB29|ATMYB29|PMG2	myb domain protein 29
AT1G49230	-0.360352275521628	0.100897042613416	0.487336985091173	-0.685649001010805	0.000328664996357518	0.0155297053901733	-0.613785548826511	0.000162927063458795	0.0086628192354273	-0.567677298916734	1.66687934778305e-07	1.36790093066335e-05	6.81900248958767e-08	1.19	0.79	1.8	1.82866721742869	0.188016514434519	1.34390695391645	0.403396361203019	2.55323064109142	0.514375718437339	1.53771213734531	0.295977720041217	4.3201371392826	0.552727177851435	2.80326271721717	0.54269979963348	AT1G49230	RING/U-box superfamily protein
AT3G50900	-0.372714445277495	0.0322475069687099	0.313196293680625	-0.580227068390563	0.0111597734231008	0.204005737589228	-0.547846431755523	0.0100207897854888	0.206977208141398	-0.478645624205902	1.34367365048033e-05	0.000652175549260486	4.42036647964658e-06	1.03	1.63	3.35	3.89850144722708	0.702950399600264	2.7853495583623	0.217954902339906	2.60883399041294	0.442539152897388	1.88618009981261	0.507038344970297	2.66077093029426	0.379338536233584	1.77099209007067	0.186352368105966	AT3G50900	unknown protein; BEST Arabidopsis thaliana protein match is: unknown protein (TAIR:AT5G66490.1); Has 45 Blast hits to 45 proteins in 7 species: Archae - 0; Bacteria - 0; Metazoa - 0; Fungi - 0; Plants - 45; Viruses - 0; Other Eukaryotes - 0 (source: NCBI BLink).
AT4G30180	-0.504329197926941	0.00527334380378613	0.1276223735411	-0.728039883712324	0.000440214811355982	0.0194857483191949	-0.501387401183979	0.0264915957869082	0.370026019552079	-0.57522517784492	2.21340069978035e-07	1.77534744264303e-05	6.35871018411909e-11	1.59	3.88	11.69	3.61055039536276	0.602679231085063	2.36650955508566	0.263625720978886	2.8438032885512	0.515909592914158	1.60591976183158	0.271209202523981	2.61687023156858	0.589891834565934	1.76852089876709	0.28296783865447	AT4G30180	sequence-specific DNA binding transcription factors;transcription regulators
AT1G49320	-0.489928833063388	0.00416813183181663	0.110971953026675	-0.641823589139646	3.05721576186114e-05	0.00210316422348085	-0.175793537724486	0.342659004919816	0.848435616047987	-0.4674082648595	3.59204731017264e-06	0.000206462735475793	8.85488504774689e-11	1.49	1.05	2.95	2.81936651461116	0.413708765663942	2.03931076714501	0.345514653827956	2.9815126047909	0.479964284508029	1.96990588944366	0.0892111780221891	1.66513097152095	0.364488888084623	1.4646078414232	0.336329404820273	ATUSPL1|USPL1	unknown seed protein like 1
AT5G65170	-0.347106210477702	0.0063178740198994	0.140262947041462	-0.586166182766792	2.4485199022492e-05	0.0017505635353489	-0.323430064270508	0.0133939740008134	0.249421606377548	-0.408693503318428	7.73373772140029e-09	8.67951576527431e-07	4.40248306423444e-11	0.94	3.56	6.83	4.57310921378734	0.31851801327076	3.6244859990045	0.581346504144823	3.92360275187782	0.0851124000239893	2.49860473323601	0.520301990432668	3.71003701758354	0.234198077100377	2.98197530862669	0.127692551726937	AT5G65170	VQ motif-containing protein
AT2G18150	-0.500999967576417	0.0143446400913033	0.211781761870055	-0.561940928770785	0.00387506479680157	0.101957509311607	-0.434025024235823	0.0708557735122499	0.59364689863906	-0.509106379744061	5.89284151370849e-06	0.000319926084015753	4.86711386002183e-19	1.88	1.05	3.91	1.41724111759447	0.267835237028412	0.991849031036327	0.0956209159149986	1.53408976256728	0.19588986759183	1.08594742432202	0.0893168950065777	0.982269713887868	0.170254866455861	0.804664840268943	0.0404897435103286	AT2G18150	Peroxidase superfamily protein
AT4G18630	-0.574528341714667	0.00176845667030185	0.0684302809881207	-0.451280516615656	0.000487535959479235	0.021034904564514	-0.459799074696355	0.00468546088707655	0.122059618879316	-0.501418357967252	7.09973226084534e-07	4.97752587196154e-05	1.95705005467833e-14	1.79	1.35	4.66	3.02649275618104	0.514475784535172	2.11034780540895	0.725665454248584	2.95110771774128	0.368455212430275	2.2922811846339	0.437744830851161	2.44781023670032	0.512947848970196	1.67606338101837	0.357625436373248	AT4G18630	Protein of unknown function (DUF688)
AT3G57260	-0.582008651183418	0.00828844789516279	0.162425120554993	-0.544398056695511	0.00470216970674002	0.116428189994948	-0.426597201682384	0.0519577167148197	0.521742870574525	-0.531159617255335	1.90703203070879e-05	0.000874770072373918	8.52324607255193e-110	4.32	0.65	12.65	1.70412684787793	1.30770759483242	1.20693634568099	0.667160690539359	2.10836536212627	1.85682083267129	1.53372088791461	1.10602245241559	1.21369091250879	0.75203752489322	0.941289962984559	0.556481226397454	BG2|BGL2|PR2|PR-2	beta-1,3-glucanase 2
AT4G23240	-0.553259987680747	0.00418498924316059	0.111312587675367	-0.497853653806572	0.0235850385571096	0.318246535589535	-0.393353052430284	0.076383585914815	0.608011403066041	-0.496833372686647	9.3128701629892e-06	0.000474739022276329	5.30271818340555e-15	1.75	0.94	3.13	2.12514808852766	0.460158736175208	1.49460629934552	0.191192668717193	1.35032021493927	0.0740864471004449	0.952080686755874	0.105717402482929	1.33606850518974	0.376394276914296	0.963673523574035	0.0606588628626202	CRK16	cysteine-rich RLK (RECEPTOR-like protein kinase) 16
AT1G77992	-0.433513646115834	0.00288952994881131	0.0914105802282157	-0.686643515572499	0.0001696649169172	0.00888212963428252	-0.738577766766262	6.79479286864864e-05	0.00417549991564835	-0.594938224373328	3.29263636111833e-10	4.94661993849703e-08	8.52363647800905e-08	0.65	7.42	11.65	6.06685027875921	0.272321696825662	4.82662960050355	0.288313578847803	4.45738556640812	0.572187293673333	2.97534125705695	0.97460238896595	4.38338867417395	0.965317400378458	2.52923466674965	0.443275119780972	AT1G77992	other RNA
