# 4-order Markov frequencies from file intermediateFiles/geneAndPromoterBackground.fasta
# seqs: 16931    min: 839    max: 61832    avg: 5480.8    sum: 92795866    alph: DNA
# order 0
A 3.125e-01
C 1.875e-01
G 1.875e-01
T 3.125e-01
# order 1
AA 1.103e-01
AC 5.264e-02
AG 6.185e-02
AT 8.762e-02
CA 6.499e-02
CC 3.593e-02
CG 2.476e-02
CT 6.185e-02
GA 6.660e-02
GC 3.236e-02
GG 3.593e-02
GT 5.264e-02
TA 7.054e-02
TC 6.660e-02
TG 6.499e-02
TT 1.103e-01
# order 2
AAA 4.052e-02
AAC 1.967e-02
AAG 2.271e-02
AAT 2.744e-02
ACA 1.932e-02
ACC 1.113e-02
ACG 6.922e-03
ACT 1.528e-02
AGA 2.407e-02
AGC 1.157e-02
AGG 1.094e-02
AGT 1.528e-02
ATA 2.283e-02
ATC 1.878e-02
ATG 1.858e-02
ATT 2.744e-02
CAA 2.376e-02
CAC 1.115e-02
CAG 1.151e-02
CAT 1.858e-02
CCA 1.376e-02
CCC 5.874e-03
CCG 5.356e-03
CCT 1.094e-02
CGA 8.531e-03
CGC 3.958e-03
CGG 5.356e-03
CGT 6.922e-03
CTA 1.262e-02
CTC 1.502e-02
CTG 1.151e-02
CTT 2.271e-02
GAA 2.320e-02
GAC 9.602e-03
GAG 1.502e-02
GAT 1.878e-02
GCA 1.084e-02
GCC 5.991e-03
GCG 3.958e-03
GCT 1.157e-02
GGA 1.294e-02
GGC 5.991e-03
GGG 5.874e-03
GGT 1.113e-02
GTA 1.223e-02
GTC 9.602e-03
GTG 1.115e-02
GTT 1.967e-02
TAA 2.286e-02
TAC 1.223e-02
TAG 1.262e-02
TAT 2.283e-02
TCA 2.107e-02
TCC 1.294e-02
TCG 8.531e-03
TCT 2.407e-02
TGA 2.107e-02
TGC 1.084e-02
TGG 1.376e-02
TGT 1.932e-02
TTA 2.286e-02
TTC 2.320e-02
TTG 2.376e-02
TTT 4.052e-02
# order 3
AAAA 1.506e-02
AAAC 7.738e-03
AAAG 7.594e-03
AAAT 1.013e-02
AACA 7.540e-03
AACC 4.210e-03
AACG 2.376e-03
AACT 5.545e-03
AAGA 9.192e-03
AAGC 4.261e-03
AAGG 3.854e-03
AAGT 5.406e-03
AATA 7.197e-03
AATC 6.098e-03
AATG 5.734e-03
AATT 8.408e-03
ACAA 7.459e-03
ACAC 3.298e-03
ACAG 3.172e-03
ACAT 5.390e-03
ACCA 4.500e-03
ACCC 1.798e-03
ACCG 1.710e-03
ACCT 3.119e-03
ACGA 2.540e-03
ACGC 1.093e-03
ACGG 1.413e-03
ACGT 1.876e-03
ACTA 3.667e-03
ACTC 3.447e-03
ACTG 2.759e-03
ACTT 5.406e-03
AGAA 8.906e-03
AGAC 3.328e-03
AGAG 5.595e-03
AGAT 6.241e-03
AGCA 3.875e-03
AGCC 2.086e-03
AGCG 1.193e-03
AGCT 4.413e-03
AGGA 4.211e-03
AGGC 1.801e-03
AGGG 1.805e-03
AGGT 3.119e-03
AGTA 3.842e-03
AGTC 2.753e-03
AGTG 3.140e-03
AGTT 5.545e-03
ATAA 7.395e-03
ATAC 3.619e-03
ATAG 3.629e-03
ATAT 8.186e-03
ATCA 6.711e-03
ATCC 3.449e-03
ATCG 2.375e-03
ATCT 6.241e-03
ATGA 6.233e-03
ATGC 2.984e-03
ATGG 3.974e-03
ATGT 5.390e-03
ATTA 6.474e-03
ATTC 5.280e-03
ATTG 5.555e-03
ATTT 1.013e-02
CAAA 8.929e-03
CAAC 4.401e-03
CAAG 4.873e-03
CAAT 5.555e-03
CACA 4.031e-03
CACC 2.560e-03
CACG 1.418e-03
CACT 3.140e-03
CAGA 4.288e-03
CAGC 2.463e-03
CAGG 1.997e-03
CAGT 2.759e-03
CATA 4.540e-03
CATC 4.518e-03
CATG 3.789e-03
CATT 5.734e-03
CCAA 5.029e-03
CCAC 2.648e-03
CCAG 2.115e-03
CCAT 3.974e-03
CCCA 2.285e-03
CCCC 9.583e-04
CCCG 8.258e-04
CCCT 1.805e-03
CCGA 1.642e-03
CCGC 9.843e-04
CCGG 1.317e-03
CCGT 1.413e-03
CCTA 2.155e-03
CCTC 2.929e-03
CCTG 1.997e-03
CCTT 3.854e-03
CGAA 2.656e-03
CGAC 1.530e-03
CGAG 1.971e-03
CGAT 2.375e-03
CGCA 1.190e-03
CGCC 1.032e-03
CGCG 5.423e-04
CGCT 1.193e-03
CGGA 1.776e-03
CGGC 1.044e-03
CGGG 8.258e-04
CGGT 1.710e-03
CGTA 1.494e-03
CGTC 1.635e-03
CGTG 1.418e-03
CGTT 2.376e-03
CTAA 4.260e-03
CTAC 2.428e-03
CTAG 2.304e-03
CTAT 3.629e-03
CTCA 4.164e-03
CTCC 3.285e-03
CTCG 1.971e-03
CTCT 5.595e-03
CTGA 3.756e-03
CTGC 2.464e-03
CTGG 2.115e-03
CTGT 3.172e-03
CTTA 4.148e-03
CTTC 6.096e-03
CTTG 4.873e-03
CTTT 7.594e-03
GAAA 8.261e-03
GAAC 3.569e-03
GAAG 6.096e-03
GAAT 5.280e-03
GACA 3.321e-03
GACC 1.893e-03
GACG 1.635e-03
GACT 2.753e-03
GAGA 6.176e-03
GAGC 2.465e-03
GAGG 2.929e-03
GAGT 3.447e-03
GATA 4.292e-03
GATC 3.869e-03
GATG 4.518e-03
GATT 6.098e-03
GCAA 3.898e-03
GCAC 1.497e-03
GCAG 2.464e-03
GCAT 2.984e-03
GCCA 2.267e-03
GCCC 8.791e-04
GCCG 1.044e-03
GCCT 1.801e-03
GCGA 1.346e-03
GCGC 5.350e-04
GCGG 9.843e-04
GCGT 1.093e-03
GCTA 2.379e-03
GCTC 2.465e-03
GCTG 2.463e-03
GCTT 4.261e-03
GGAA 4.493e-03
GGAC 1.714e-03
GGAG 3.285e-03
GGAT 3.449e-03
GGCA 1.793e-03
GGCC 1.080e-03
GGCG 1.032e-03
GGCT 2.086e-03
GGGA 2.239e-03
GGGC 8.791e-04
GGGG 9.583e-04
GGGT 1.798e-03
GGTA 2.463e-03
GGTC 1.893e-03
GGTG 2.560e-03
GGTT 4.210e-03
GTAA 4.171e-03
GTAC 2.008e-03
GTAG 2.428e-03
GTAT 3.619e-03
GTCA 3.030e-03
GTCC 1.714e-03
GTCG 1.530e-03
GTCT 3.328e-03
GTGA 3.706e-03
GTGC 1.497e-03
GTGG 2.648e-03
GTGT 3.298e-03
GTTA 3.962e-03
GTTC 3.569e-03
GTTG 4.401e-03
GTTT 7.738e-03
TAAA 8.268e-03
TAAC 3.962e-03
TAAG 4.148e-03
TAAT 6.474e-03
TACA 4.427e-03
TACC 2.463e-03
TACG 1.494e-03
TACT 3.842e-03
TAGA 4.413e-03
TAGC 2.379e-03
TAGG 2.155e-03
TAGT 3.667e-03
TATA 6.801e-03
TATC 4.292e-03
TATG 4.540e-03
TATT 7.197e-03
TCAA 7.372e-03
TCAC 3.706e-03
TCAG 3.756e-03
TCAT 6.233e-03
TCCA 4.715e-03
TCCC 2.239e-03
TCCG 1.776e-03
TCCT 4.211e-03
TCGA 3.004e-03
TCGC 1.346e-03
TCGG 1.642e-03
TCGT 2.540e-03
TCTA 4.413e-03
TCTC 6.176e-03
TCTG 4.288e-03
TCTT 9.192e-03
TGAA 7.148e-03
TGAC 3.030e-03
TGAG 4.164e-03
TGAT 6.711e-03
TGCA 3.982e-03
TGCC 1.793e-03
TGCG 1.190e-03
TGCT 3.875e-03
TGGA 4.715e-03
TGGC 2.267e-03
TGGG 2.285e-03
TGGT 4.500e-03
TGTA 4.427e-03
TGTC 3.321e-03
TGTG 4.031e-03
TGTT 7.540e-03
TTAA 7.039e-03
TTAC 4.171e-03
TTAG 4.260e-03
TTAT 7.395e-03
TTCA 7.148e-03
TTCC 4.493e-03
TTCG 2.656e-03
TTCT 8.906e-03
TTGA 7.372e-03
TTGC 3.898e-03
TTGG 5.029e-03
TTGT 7.459e-03
TTTA 8.268e-03
TTTC 8.261e-03
TTTG 8.929e-03
TTTT 1.506e-02
# order 4
AAAAA 5.817e-03
AAAAC 2.820e-03
AAAAG 2.669e-03
AAAAT 3.752e-03
AAACA 2.916e-03
AAACC 1.724e-03
AAACG 9.176e-04
AAACT 2.181e-03
AAAGA 3.032e-03
AAAGC 1.393e-03
AAAGG 1.326e-03
AAAGT 1.842e-03
AAATA 2.816e-03
AAATC 2.200e-03
AAATG 2.052e-03
AAATT 3.058e-03
AACAA 3.067e-03
AACAC 1.240e-03
AACAG 1.251e-03
AACAT 1.982e-03
AACCA 1.651e-03
AACCC 7.841e-04
AACCG 6.519e-04
AACCT 1.123e-03
AACGA 8.755e-04
AACGC 3.918e-04
AACGG 4.803e-04
AACGT 6.282e-04
AACTA 1.334e-03
AACTC 1.288e-03
AACTG 9.839e-04
AACTT 1.939e-03
AAGAA 3.764e-03
AAGAC 1.232e-03
AAGAG 1.945e-03
AAGAT 2.250e-03
AAGCA 1.471e-03
AAGCC 7.544e-04
AAGCG 4.280e-04
AAGCT 1.607e-03
AAGGA 1.507e-03
AAGGC 6.372e-04
AAGGG 6.250e-04
AAGGT 1.085e-03
AAGTA 1.401e-03
AAGTC 9.853e-04
AAGTG 1.080e-03
AAGTT 1.939e-03
AATAA 2.564e-03
AATAC 1.098e-03
AATAG 1.109e-03
AATAT 2.425e-03
AATCA 2.148e-03
AATCC 1.148e-03
AATCG 7.493e-04
AATCT 2.053e-03
AATGA 1.849e-03
AATGC 9.190e-04
AATGG 1.298e-03
AATGT 1.669e-03
AATTA 2.162e-03
AATTC 1.572e-03
AATTG 1.615e-03
AATTT 3.058e-03
ACAAA 2.898e-03
ACAAC 1.356e-03
ACAAG 1.515e-03
ACAAT 1.690e-03
ACACA 1.354e-03
ACACC 6.310e-04
ACACG 4.162e-04
ACACT 8.969e-04
ACAGA 1.298e-03
ACAGC 5.713e-04
ACAGG 5.123e-04
ACAGT 7.909e-04
ACATA 1.476e-03
ACATC 1.082e-03
ACATG 1.164e-03
ACATT 1.669e-03
ACCAA 1.739e-03
ACCAC 8.407e-04
ACCAG 7.256e-04
ACCAT 1.195e-03
ACCCA 6.746e-04
ACCCC 2.667e-04
ACCCG 2.828e-04
ACCCT 5.736e-04
ACCGA 5.101e-04
ACCGC 3.041e-04
ACCGG 4.402e-04
ACCGT 4.561e-04
ACCTA 6.405e-04
ACCTC 7.419e-04
ACCTG 6.515e-04
ACCTT 1.085e-03
ACGAA 8.478e-04
ACGAC 4.671e-04
ACGAG 5.765e-04
ACGAT 6.487e-04
ACGCA 3.667e-04
ACGCC 2.443e-04
ACGCG 1.579e-04
ACGCT 3.243e-04
ACGGA 4.573e-04
ACGGC 2.903e-04
ACGGG 2.094e-04
ACGGT 4.561e-04
ACGTA 4.526e-04
ACGTC 3.720e-04
ACGTG 4.235e-04
ACGTT 6.282e-04
ACTAA 1.273e-03
ACTAC 6.860e-04
ACTAG 6.527e-04
ACTAT 1.055e-03
ACTCA 1.063e-03
ACTCC 6.546e-04
ACTCG 5.253e-04
ACTCT 1.204e-03
ACTGA 9.140e-04
ACTGC 5.282e-04
ACTGG 5.262e-04
ACTGT 7.909e-04
ACTTA 1.106e-03
ACTTC 1.190e-03
ACTTG 1.267e-03
ACTTT 1.842e-03
AGAAA 3.320e-03
AGAAC 1.315e-03
AGAAG 2.463e-03
AGAAT 1.809e-03
AGACA 1.225e-03
AGACC 6.111e-04
AGACG 5.374e-04
AGACT 9.545e-04
AGAGA 2.527e-03
AGAGC 8.494e-04
AGAGG 1.015e-03
AGAGT 1.204e-03
AGATA 1.509e-03
AGATC 1.241e-03
AGATG 1.438e-03
AGATT 2.053e-03
AGCAA 1.465e-03
AGCAC 5.259e-04
AGCAG 8.654e-04
AGCAT 1.020e-03
AGCCA 8.351e-04
AGCCC 3.232e-04
AGCCG 3.210e-04
AGCCT 6.067e-04
AGCGA 4.362e-04
AGCGC 1.605e-04
AGCGG 2.722e-04
AGCGT 3.243e-04
AGCTA 9.329e-04
AGCTC 9.514e-04
AGCTG 9.220e-04
AGCTT 1.607e-03
AGGAA 1.559e-03
AGGAC 5.310e-04
AGGAG 1.086e-03
AGGAT 1.035e-03
AGGCA 6.032e-04
AGGCC 3.235e-04
AGGCG 2.680e-04
AGGCT 6.067e-04
AGGGA 7.017e-04
AGGGC 2.545e-04
AGGGG 2.755e-04
AGGGT 5.736e-04
AGGTA 8.137e-04
AGGTC 5.176e-04
AGGTG 6.644e-04
AGGTT 1.123e-03
AGTAA 1.338e-03
AGTAC 6.123e-04
AGTAG 8.025e-04
AGTAT 1.089e-03
AGTCA 9.309e-04
AGTCC 4.925e-04
AGTCG 3.749e-04
AGTCT 9.545e-04
AGTGA 1.127e-03
AGTGC 4.035e-04
AGTGG 7.126e-04
AGTGT 8.969e-04
AGTTA 1.169e-03
AGTTC 1.012e-03
AGTTG 1.182e-03
AGTTT 2.181e-03
ATAAA 2.755e-03
ATAAC 1.232e-03
ATAAG 1.297e-03
ATAAT 2.108e-03
ATACA 1.398e-03
ATACC 7.072e-04
ATACG 4.251e-04
ATACT 1.089e-03
ATAGA 1.361e-03
ATAGC 6.504e-04
ATAGG 5.609e-04
ATAGT 1.055e-03
ATATA 2.790e-03
ATATC 1.413e-03
ATATG 1.558e-03
ATATT 2.425e-03
ATCAA 2.426e-03
ATCAC 1.118e-03
ATCAG 1.150e-03
ATCAT 2.017e-03
ATCCA 1.324e-03
ATCCC 5.936e-04
ATCCG 4.954e-04
ATCCT 1.035e-03
ATCGA 8.903e-04
ATCGC 3.808e-04
ATCGG 4.558e-04
ATCGT 6.487e-04
ATCTA 1.273e-03
ATCTC 1.582e-03
ATCTG 1.135e-03
ATCTT 2.250e-03
ATGAA 2.145e-03
ATGAC 8.757e-04
ATGAG 1.192e-03
ATGAT 2.017e-03
ATGCA 1.147e-03
ATGCC 4.942e-04
ATGCG 3.237e-04
ATGCT 1.020e-03
ATGGA 1.416e-03
ATGGC 6.830e-04
ATGGG 6.799e-04
ATGGT 1.195e-03
ATGTA 1.333e-03
ATGTC 9.498e-04
ATGTG 1.125e-03
ATGTT 1.982e-03
ATTAA 2.040e-03
ATTAC 1.128e-03
ATTAG 1.199e-03
ATTAT 2.108e-03
ATTCA 1.800e-03
ATTCC 1.003e-03
ATTCG 6.679e-04
ATTCT 1.809e-03
ATTGA 1.798e-03
ATTGC 9.165e-04
ATTGG 1.150e-03
ATTGT 1.690e-03
ATTTA 2.182e-03
ATTTC 1.976e-03
ATTTG 2.216e-03
ATTTT 3.752e-03
CAAAA 3.292e-03
CAAAC 1.664e-03
CAAAG 1.757e-03
CAAAT 2.216e-03
CAACA 1.817e-03
CAACC 8.255e-04
CAACG 5.766e-04
CAACT 1.182e-03
CAAGA 1.861e-03
CAAGC 8.984e-04
CAAGG 8.471e-04
CAAGT 1.267e-03
CAATA 1.391e-03
CAATC 1.240e-03
CAATG 1.310e-03
CAATT 1.615e-03
CACAA 1.518e-03
CACAC 7.356e-04
CACAG 6.527e-04
CACAT 1.125e-03
CACCA 1.135e-03
CACCC 3.083e-04
CACCG 4.521e-04
CACCT 6.644e-04
CACGA 4.808e-04
CACGC 2.262e-04
CACGG 2.871e-04
CACGT 4.235e-04
CACTA 7.448e-04
CACTC 6.963e-04
CACTG 6.185e-04
CACTT 1.080e-03
CAGAA 1.480e-03
CAGAC 5.762e-04
CAGAG 1.097e-03
CAGAT 1.135e-03
CAGCA 8.250e-04
CAGCC 4.433e-04
CAGCG 2.726e-04
CAGCT 9.220e-04
CAGGA 6.892e-04
CAGGC 3.216e-04
CAGGG 3.352e-04
CAGGT 6.515e-04
CAGTA 6.490e-04
CAGTC 5.081e-04
CAGTG 6.185e-04
CAGTT 9.839e-04
CATAA 1.444e-03
CATAC 7.783e-04
CATAG 7.606e-04
CATAT 1.558e-03
CATCA 1.736e-03
CATCC 7.543e-04
CATCG 5.901e-04
CATCT 1.438e-03
CATGA 1.200e-03
CATGC 6.044e-04
CATGG 8.203e-04
CATGT 1.164e-03
CATTA 1.289e-03
CATTC 1.083e-03
CATTG 1.310e-03
CATTT 2.052e-03
CCAAA 1.979e-03
CCAAC 9.017e-04
CCAAG 9.987e-04
CCAAT 1.150e-03
CCACA 8.691e-04
CCACC 7.178e-04
CCACG 3.485e-04
CCACT 7.126e-04
CCAGA 7.759e-04
CCAGC 4.633e-04
CCAGG 3.501e-04
CCAGT 5.262e-04
CCATA 8.994e-04
CCATC 9.565e-04
CCATG 8.203e-04
CCATT 1.298e-03
CCCAA 8.810e-04
CCCAC 4.155e-04
CCCAG 3.085e-04
CCCAT 6.799e-04
CCCCA 3.998e-04
CCCCC 1.594e-04
CCCCG 1.236e-04
CCCCT 2.755e-04
CCCGA 2.853e-04
CCCGC 1.474e-04
CCCGG 1.838e-04
CCCGT 2.094e-04
CCCTA 4.296e-04
CCCTC 4.152e-04
CCCTG 3.352e-04
CCCTT 6.250e-04
CCGAA 4.932e-04
CCGAC 2.984e-04
CCGAG 3.949e-04
CCGAT 4.558e-04
CCGCA 2.793e-04
CCGCC 2.963e-04
CCGCG 1.367e-04
CCGCT 2.722e-04
CCGGA 4.470e-04
CCGGC 2.459e-04
CCGGG 1.838e-04
CCGGT 4.402e-04
CCGTA 2.965e-04
CCGTC 3.492e-04
CCGTG 2.871e-04
CCGTT 4.803e-04
CCTAA 8.183e-04
CCTAC 3.837e-04
CCTAG 3.922e-04
CCTAT 5.609e-04
CCTCA 7.891e-04
CCTCC 7.402e-04
CCTCG 3.847e-04
CCTCT 1.015e-03
CCTGA 7.176e-04
CCTGC 4.175e-04
CCTGG 3.501e-04
CCTGT 5.123e-04
CCTTA 7.059e-04
CCTTC 9.750e-04
CCTTG 8.471e-04
CCTTT 1.326e-03
CGAAA 9.065e-04
CGAAC 4.340e-04
CGAAG 6.473e-04
CGAAT 6.679e-04
CGACA 4.687e-04
CGACC 3.228e-04
CGACG 3.633e-04
CGACT 3.749e-04
CGAGA 6.968e-04
CGAGC 3.642e-04
CGAGG 3.847e-04
CGAGT 5.253e-04
CGATA 5.013e-04
CGATC 5.349e-04
CGATG 5.901e-04
CGATT 7.493e-04
CGCAA 4.164e-04
CGCAC 1.692e-04
CGCAG 2.812e-04
CGCAT 3.237e-04
CGCCA 3.539e-04
CGCCC 1.035e-04
CGCCG 3.070e-04
CGCCT 2.680e-04
CGCGA 1.679e-04
CGCGC 7.980e-05
CGCGG 1.367e-04
CGCGT 1.579e-04
CGCTA 2.399e-04
CGCTC 2.527e-04
CGCTG 2.726e-04
CGCTT 4.280e-04
CGGAA 5.535e-04
CGGAC 2.187e-04
CGGAG 5.082e-04
CGGAT 4.954e-04
CGGCA 2.441e-04
CGGCC 1.724e-04
CGGCG 3.070e-04
CGGCT 3.210e-04
CGGGA 3.081e-04
CGGGC 1.115e-04
CGGGG 1.236e-04
CGGGT 2.828e-04
CGGTA 3.349e-04
CGGTC 2.715e-04
CGGTG 4.521e-04
CGGTT 6.519e-04
CGTAA 4.877e-04
CGTAC 2.768e-04
CGTAG 3.041e-04
CGTAT 4.251e-04
CGTCA 4.638e-04
CGTCC 2.708e-04
CGTCG 3.633e-04
CGTCT 5.374e-04
CGTGA 4.536e-04
CGTGC 1.993e-04
CGTGG 3.485e-04
CGTGT 4.162e-04
CGTTA 4.720e-04
CGTTC 4.096e-04
CGTTG 5.766e-04
CGTTT 9.176e-04
CTAAA 1.553e-03
CTAAC 7.493e-04
CTAAG 7.556e-04
CTAAT 1.199e-03
CTACA 8.878e-04
CTACC 4.339e-04
CTACG 3.041e-04
CTACT 8.025e-04
CTAGA 8.024e-04
CTAGC 4.550e-04
CTAGG 3.922e-04
CTAGT 6.527e-04
CTATA 1.023e-03
CTATC 7.366e-04
CTATG 7.606e-04
CTATT 1.109e-03
CTCAA 1.465e-03
CTCAC 7.269e-04
CTCAG 7.811e-04
CTCAT 1.192e-03
CTCCA 1.206e-03
CTCCC 4.850e-04
CTCCG 5.082e-04
CTCCT 1.086e-03
CTCGA 6.796e-04
CTCGC 3.200e-04
CTCGG 3.949e-04
CTCGT 5.765e-04
CTCTA 1.027e-03
CTCTC 1.526e-03
CTCTG 1.097e-03
CTCTT 1.945e-03
CTGAA 1.331e-03
CTGAC 4.908e-04
CTGAG 7.811e-04
CTGAT 1.150e-03
CTGCA 9.405e-04
CTGCC 3.770e-04
CTGCG 2.812e-04
CTGCT 8.654e-04
CTGGA 7.591e-04
CTGGC 3.224e-04
CTGGG 3.085e-04
CTGGT 7.256e-04
CTGTA 7.142e-04
CTGTC 5.548e-04
CTGTG 6.527e-04
CTGTT 1.251e-03
CTTAA 1.281e-03
CTTAC 8.153e-04
CTTAG 7.556e-04
CTTAT 1.297e-03
CTTCA 1.811e-03
CTTCC 1.175e-03
CTTCG 6.473e-04
CTTCT 2.463e-03
CTTGA 1.545e-03
CTTGC 8.144e-04
CTTGG 9.987e-04
CTTGT 1.515e-03
CTTTA 1.511e-03
CTTTC 1.657e-03
CTTTG 1.757e-03
CTTTT 2.669e-03
GAAAA 2.917e-03
GAAAC 1.711e-03
GAAAG 1.657e-03
GAAAT 1.976e-03
GAACA 1.331e-03
GAACC 8.164e-04
GAACG 4.096e-04
GAACT 1.012e-03
GAAGA 2.748e-03
GAAGC 1.183e-03
GAAGG 9.750e-04
GAAGT 1.190e-03
GAATA 1.224e-03
GAATC 1.400e-03
GAATG 1.083e-03
GAATT 1.572e-03
GACAA 1.252e-03
GACAC 5.640e-04
GACAG 5.548e-04
GACAT 9.498e-04
GACCA 7.721e-04
GACCC 3.322e-04
GACCG 2.715e-04
GACCT 5.176e-04
GACGA 6.700e-04
GACGC 2.442e-04
GACGG 3.492e-04
GACGT 3.720e-04
GACTA 6.248e-04
GACTC 6.347e-04
GACTG 5.081e-04
GACTT 9.853e-04
GAGAA 2.188e-03
GAGAC 8.802e-04
GAGAG 1.526e-03
GAGAT 1.582e-03
GAGCA 8.085e-04
GAGCC 4.529e-04
GAGCG 2.527e-04
GAGCT 9.514e-04
GAGGA 1.290e-03
GAGGC 4.819e-04
GAGGG 4.152e-04
GAGGT 7.419e-04
GAGTA 8.282e-04
GAGTC 6.347e-04
GAGTG 6.963e-04
GAGTT 1.288e-03
GATAA 1.409e-03
GATAC 7.327e-04
GATAG 7.366e-04
GATAT 1.413e-03
GATCA 1.310e-03
GATCC 7.833e-04
GATCG 5.349e-04
GATCT 1.241e-03
GATGA 1.745e-03
GATGC 7.349e-04
GATGG 9.565e-04
GATGT 1.082e-03
GATTA 1.258e-03
GATTC 1.400e-03
GATTG 1.240e-03
GATTT 2.200e-03
GCAAA 1.400e-03
GCAAC 7.664e-04
GCAAG 8.144e-04
GCAAT 9.165e-04
GCACA 5.376e-04
GCACC 3.564e-04
GCACG 1.993e-04
GCACT 4.035e-04
GCAGA 8.823e-04
GCAGC 6.361e-04
GCAGG 4.175e-04
GCAGT 5.282e-04
GCATA 7.260e-04
GCATC 7.349e-04
GCATG 6.044e-04
GCATT 9.190e-04
GCCAA 7.894e-04
GCCAC 4.721e-04
GCCAG 3.224e-04
GCCAT 6.830e-04
GCCCA 3.791e-04
GCCCC 1.341e-04
GCCCG 1.115e-04
GCCCT 2.545e-04
GCCGA 2.816e-04
GCCGC 2.268e-04
GCCGG 2.459e-04
GCCGT 2.903e-04
GCCTA 3.604e-04
GCCTC 4.819e-04
GCCTG 3.216e-04
GCCTT 6.372e-04
GCGAA 4.005e-04
GCGAC 2.446e-04
GCGAG 3.200e-04
GCGAT 3.808e-04
GCGCA 1.606e-04
GCGCC 1.342e-04
GCGCG 7.980e-05
GCGCT 1.605e-04
GCGGA 3.062e-04
GCGGC 2.268e-04
GCGGG 1.474e-04
GCGGT 3.041e-04
GCGTA 2.311e-04
GCGTC 2.442e-04
GCGTG 2.262e-04
GCGTT 3.918e-04
GCTAA 7.952e-04
GCTAC 4.784e-04
GCTAG 4.550e-04
GCTAT 6.504e-04
GCTCA 7.104e-04
GCTCC 5.413e-04
GCTCG 3.642e-04
GCTCT 8.494e-04
GCTGA 7.921e-04
GCTGC 6.361e-04
GCTGG 4.633e-04
GCTGT 5.713e-04
GCTTA 7.858e-04
GCTTC 1.183e-03
GCTTG 8.984e-04
GCTTT 1.393e-03
GGAAA 1.578e-03
GGAAC 7.376e-04
GGAAG 1.175e-03
GGAAT 1.003e-03
GGACA 5.910e-04
GGACC 3.603e-04
GGACG 2.708e-04
GGACT 4.925e-04
GGAGA 1.349e-03
GGAGC 5.413e-04
GGAGG 7.402e-04
GGAGT 6.546e-04
GGATA 7.631e-04
GGATC 7.833e-04
GGATG 7.543e-04
GGATT 1.148e-03
GGCAA 6.486e-04
GGCAC 2.739e-04
GGCAG 3.770e-04
GGCAT 4.942e-04
GGCCA 4.029e-04
GGCCC 1.811e-04
GGCCG 1.724e-04
GGCCT 3.235e-04
GGCGA 3.577e-04
GGCGC 1.342e-04
GGCGG 2.963e-04
GGCGT 2.443e-04
GGCTA 4.353e-04
GGCTC 4.529e-04
GGCTG 4.433e-04
GGCTT 7.544e-04
GGGAA 8.352e-04
GGGAC 3.258e-04
GGGAG 4.850e-04
GGGAT 5.936e-04
GGGCA 2.714e-04
GGGCC 1.811e-04
GGGCG 1.035e-04
GGGCT 3.232e-04
GGGGA 3.982e-04
GGGGC 1.341e-04
GGGGG 1.594e-04
GGGGT 2.667e-04
GGGTA 3.733e-04
GGGTC 3.322e-04
GGGTG 3.083e-04
GGGTT 7.841e-04
GGTAA 8.947e-04
GGTAC 4.278e-04
GGTAG 4.339e-04
GGTAT 7.072e-04
GGTCA 5.994e-04
GGTCC 3.603e-04
GGTCG 3.228e-04
GGTCT 6.111e-04
GGTGA 8.551e-04
GGTGC 3.564e-04
GGTGG 7.178e-04
GGTGT 6.310e-04
GGTTA 8.448e-04
GGTTC 8.164e-04
GGTTG 8.255e-04
GGTTT 1.724e-03
GTAAA 1.450e-03
GTAAC 7.757e-04
GTAAG 8.153e-04
GTAAT 1.128e-03
GTACA 6.910e-04
GTACC 4.278e-04
GTACG 2.768e-04
GTACT 6.123e-04
GTAGA 8.789e-04
GTAGC 4.784e-04
GTAGG 3.837e-04
GTAGT 6.860e-04
GTATA 1.011e-03
GTATC 7.327e-04
GTATG 7.783e-04
GTATT 1.098e-03
GTCAA 1.087e-03
GTCAC 5.766e-04
GTCAG 4.908e-04
GTCAT 8.757e-04
GTCCA 6.389e-04
GTCCC 3.258e-04
GTCCG 2.187e-04
GTCCT 5.310e-04
GTCGA 5.196e-04
GTCGC 2.446e-04
GTCGG 2.984e-04
GTCGT 4.671e-04
GTCTA 6.388e-04
GTCTC 8.802e-04
GTCTG 5.762e-04
GTCTT 1.232e-03
GTGAA 1.282e-03
GTGAC 5.766e-04
GTGAG 7.269e-04
GTGAT 1.118e-03
GTGCA 5.278e-04
GTGCC 2.739e-04
GTGCG 1.692e-04
GTGCT 5.259e-04
GTGGA 9.198e-04
GTGGC 4.721e-04
GTGGG 4.155e-04
GTGGT 8.407e-04
GTGTA 7.582e-04
GTGTC 5.640e-04
GTGTG 7.356e-04
GTGTT 1.240e-03
GTTAA 1.204e-03
GTTAC 7.757e-04
GTTAG 7.493e-04
GTTAT 1.232e-03
GTTCA 1.082e-03
GTTCC 7.376e-04
GTTCG 4.340e-04
GTTCT 1.315e-03
GTTGA 1.378e-03
GTTGC 7.664e-04
GTTGG 9.017e-04
GTTGT 1.356e-03
GTTTA 1.543e-03
GTTTC 1.711e-03
GTTTG 1.664e-03
GTTTT 2.820e-03
TAAAA 3.031e-03
TAAAC 1.543e-03
TAAAG 1.511e-03
TAAAT 2.182e-03
TAACA 1.476e-03
TAACC 8.448e-04
TAACG 4.720e-04
TAACT 1.169e-03
TAAGA 1.550e-03
TAAGC 7.858e-04
TAAGG 7.059e-04
TAAGT 1.106e-03
TAATA 1.765e-03
TAATC 1.258e-03
TAATG 1.289e-03
TAATT 2.162e-03
TACAA 1.622e-03
TACAC 7.582e-04
TACAG 7.142e-04
TACAT 1.333e-03
TACCA 9.414e-04
TACCC 3.733e-04
TACCG 3.349e-04
TACCT 8.137e-04
TACGA 5.136e-04
TACGC 2.311e-04
TACGG 2.965e-04
TACGT 4.526e-04
TACTA 9.630e-04
TACTC 8.282e-04
TACTG 6.490e-04
TACTT 1.401e-03
TAGAA 1.475e-03
TAGAC 6.388e-04
TAGAG 1.027e-03
TAGAT 1.273e-03
TAGCA 7.709e-04
TAGCC 4.353e-04
TAGCG 2.399e-04
TAGCT 9.329e-04
TAGGA 7.245e-04
TAGGC 3.604e-04
TAGGG 4.296e-04
TAGGT 6.405e-04
TAGTA 9.630e-04
TAGTC 6.248e-04
TAGTG 7.448e-04
TAGTT 1.334e-03
TATAA 1.977e-03
TATAC 1.011e-03
TATAG 1.023e-03
TATAT 2.790e-03
TATCA 1.518e-03
TATCC 7.631e-04
TATCG 5.013e-04
TATCT 1.509e-03
TATGA 1.438e-03
TATGC 7.260e-04
TATGG 8.994e-04
TATGT 1.476e-03
TATTA 1.765e-03
TATTC 1.224e-03
TATTG 1.391e-03
TATTT 2.816e-03
TCAAA 2.652e-03
TCAAC 1.378e-03
TCAAG 1.545e-03
TCAAT 1.798e-03
TCACA 1.270e-03
TCACC 8.551e-04
TCACG 4.536e-04
TCACT 1.127e-03
TCAGA 1.332e-03
TCAGC 7.921e-04
TCAGG 7.176e-04
TCAGT 9.140e-04
TCATA 1.438e-03
TCATC 1.745e-03
TCATG 1.200e-03
TCATT 1.849e-03
TCCAA 1.620e-03
TCCAC 9.198e-04
TCCAG 7.591e-04
TCCAT 1.416e-03
TCCCA 8.313e-04
TCCCC 3.982e-04
TCCCG 3.081e-04
TCCCT 7.017e-04
TCCGA 5.653e-04
TCCGC 3.062e-04
TCCGG 4.470e-04
TCCGT 4.573e-04
TCCTA 7.245e-04
TCCTC 1.290e-03
TCCTG 6.892e-04
TCCTT 1.507e-03
TCGAA 9.142e-04
TCGAC 5.196e-04
TCGAG 6.796e-04
TCGAT 8.903e-04
TCGCA 3.839e-04
TCGCC 3.577e-04
TCGCG 1.679e-04
TCGCT 4.362e-04
TCGGA 5.653e-04
TCGGC 2.816e-04
TCGGG 2.853e-04
TCGGT 5.101e-04
TCGTA 5.136e-04
TCGTC 6.700e-04
TCGTG 4.808e-04
TCGTT 8.755e-04
TCTAA 1.371e-03
TCTAC 8.789e-04
TCTAG 8.024e-04
TCTAT 1.361e-03
TCTCA 1.602e-03
TCTCC 1.349e-03
TCTCG 6.968e-04
TCTCT 2.527e-03
TCTGA 1.332e-03
TCTGC 8.823e-04
TCTGG 7.759e-04
TCTGT 1.298e-03
TCTTA 1.550e-03
TCTTC 2.748e-03
TCTTG 1.861e-03
TCTTT 3.032e-03
TGAAA 2.456e-03
TGAAC 1.082e-03
TGAAG 1.811e-03
TGAAT 1.800e-03
TGACA 1.036e-03
TGACC 5.994e-04
TGACG 4.638e-04
TGACT 9.309e-04
TGAGA 1.602e-03
TGAGC 7.104e-04
TGAGG 7.891e-04
TGAGT 1.063e-03
TGATA 1.518e-03
TGATC 1.310e-03
TGATG 1.736e-03
TGATT 2.148e-03
TGCAA 1.367e-03
TGCAC 5.278e-04
TGCAG 9.405e-04
TGCAT 1.147e-03
TGCCA 6.748e-04
TGCCC 2.714e-04
TGCCG 2.441e-04
TGCCT 6.032e-04
TGCGA 3.839e-04
TGCGC 1.606e-04
TGCGG 2.793e-04
TGCGT 3.667e-04
TGCTA 7.709e-04
TGCTC 8.085e-04
TGCTG 8.250e-04
TGCTT 1.471e-03
TGGAA 1.546e-03
TGGAC 6.389e-04
TGGAG 1.206e-03
TGGAT 1.324e-03
TGGCA 6.748e-04
TGGCC 4.029e-04
TGGCG 3.539e-04
TGGCT 8.351e-04
TGGGA 8.313e-04
TGGGC 3.791e-04
TGGGG 3.998e-04
TGGGT 6.746e-04
TGGTA 9.414e-04
TGGTC 7.721e-04
TGGTG 1.135e-03
TGGTT 1.651e-03
TGTAA 1.450e-03
TGTAC 6.910e-04
TGTAG 8.878e-04
TGTAT 1.398e-03
TGTCA 1.036e-03
TGTCC 5.910e-04
TGTCG 4.687e-04
TGTCT 1.225e-03
TGTGA 1.270e-03
TGTGC 5.376e-04
TGTGG 8.691e-04
TGTGT 1.354e-03
TGTTA 1.476e-03
TGTTC 1.331e-03
TGTTG 1.817e-03
TGTTT 2.916e-03
TTAAA 2.509e-03
TTAAC 1.204e-03
TTAAG 1.281e-03
TTAAT 2.040e-03
TTACA 1.450e-03
TTACC 8.947e-04
TTACG 4.877e-04
TTACT 1.338e-03
TTAGA 1.371e-03
TTAGC 7.952e-04
TTAGG 8.183e-04
TTAGT 1.273e-03
TTATA 1.977e-03
TTATC 1.409e-03
TTATG 1.444e-03
TTATT 2.564e-03
TTCAA 2.390e-03
TTCAC 1.282e-03
TTCAG 1.331e-03
TTCAT 2.145e-03
TTCCA 1.546e-03
TTCCC 8.352e-04
TTCCG 5.535e-04
TTCCT 1.559e-03
TTCGA 9.142e-04
TTCGC 4.005e-04
TTCGG 4.932e-04
TTCGT 8.478e-04
TTCTA 1.475e-03
TTCTC 2.188e-03
TTCTG 1.480e-03
TTCTT 3.764e-03
TTGAA 2.390e-03
TTGAC 1.087e-03
TTGAG 1.465e-03
TTGAT 2.426e-03
TTGCA 1.367e-03
TTGCC 6.486e-04
TTGCG 4.164e-04
TTGCT 1.465e-03
TTGGA 1.620e-03
TTGGC 7.894e-04
TTGGG 8.810e-04
TTGGT 1.739e-03
TTGTA 1.622e-03
TTGTC 1.252e-03
TTGTG 1.518e-03
TTGTT 3.067e-03
TTTAA 2.509e-03
TTTAC 1.450e-03
TTTAG 1.553e-03
TTTAT 2.755e-03
TTTCA 2.456e-03
TTTCC 1.578e-03
TTTCG 9.065e-04
TTTCT 3.320e-03
TTTGA 2.652e-03
TTTGC 1.400e-03
TTTGG 1.979e-03
TTTGT 2.898e-03
TTTTA 3.031e-03
TTTTC 2.917e-03
TTTTG 3.292e-03
TTTTT 5.817e-03
