AT3G63350	3.059
AT5G66780	2.937
AT1G73120	2.702
AT3G13403	2.164
AT1G33055	1.913
AT3G13404	1.808
AT4G33420	1.774
ATCG01070	1.611
AT1G16025	1.587
ATCG01060	1.579
AT1G16022	1.565
AT2G31920	1.529
AT4G35770	1.389
AT5G44440	1.301
AT4G03965	1.272
AT2G20670	1.271
AT4G28720	1.265
AT1G26680	1.235
AT1G56680	1.234
AT1G06100	1.225
AT5G43935	1.22
ATCG00020	1.214
AT1G48660	1.191
AT1G29270	1.115
AT5G57640	1.046
AT1G25530	1.032
AT5G59130	1.019
AT3G03170	0.988
AT5G21940	0.971
AT1G49475	0.966
AT4G02360	0.952
AT1G08500	0.95
AT5G61600	0.936
AT3G05190	0.932
AT3G16300	0.928
AT5G19520	0.901
AT1G12890	0.899
AT1G78700	0.899
AT3G18280	0.892
AT3G41768	0.884
AT1G28330	0.866
AT1G66390	0.828
AT4G23410	0.823
AT1G78710	0.806
AT5G18670	0.804
AT5G10278	0.789
ATCG00720	0.786
ATCG00490	0.784
AT2G33330	0.773
AT3G24810	0.772
AT3G29300	0.77
AT1G12320	0.746
AT5G26790	0.728
ATCG00120	0.724
ATCG00280	0.711
AT2G47780	0.697
AT2G42885	0.697
AT4G10770	0.674
AT4G37610	0.667
AT1G15405	0.665
ATCG00270	0.662
AT2G32280	0.653
AT4G30290	0.65
AT4G32480	0.645
AT1G07710	0.642
AT5G65590	0.64
AT5G04230	0.638
AT5G25490	0.63
AT5G22310	0.624
AT2G27190	0.622
AT3G21720	0.62
AT2G24762	0.618
AT1G67710	0.608
AT3G42670	0.606
AT1G23000	0.6
AT2G45900	0.595
AT1G53070	0.593
AT5G56550	0.592
AT1G62500	0.588
AT4G03510	0.577
AT1G79420	0.574
AT5G60680	0.571
AT1G28070	0.569
AT3G52490	0.558
AT3G48240	0.553
AT1G67360	0.551
AT1G17190	0.55
AT1G30515	0.549
AT3G02550	0.548
AT3G08570	0.548
AT4G01700	0.542
AT1G05680	0.541
AT3G02410	0.532
AT2G25900	0.532
AT3G23730	0.528
AT5G41080	0.525
AT1G20530	0.523
AT3G59940	0.521
AT1G62290	0.519
AT2G23180	0.518
AT1G48330	0.509
AT5G61440	0.507
AT4G05070	0.501
AT3G23580	0.497
AT5G37790	0.491
AT3G12730	0.486
AT2G20515	0.482
AT1G55850	0.479
AT4G24240	0.464
ATMG00020	0.464
AT4G36040	0.463
AT5G02440	0.46
AT2G01210	0.459
AT2G47860	0.453
AT3G57010	0.452
AT1G64450	0.449
AT5G66600	0.448
AT4G24370	0.447
AT1G61680	0.446
AT5G14450	0.446
AT5G13290	0.446
AT1G21460	0.446
AT1G63800	0.445
AT1G22490	0.444
AT1G70560	0.441
AT1G01620	0.441
AT4G03210	0.44
AT3G18900	0.436
AT2G45050	0.435
AT1G18740	0.432
AT3G58850	0.431
AT1G28390	0.429
AT4G35090	0.428
AT2G25790	0.426
AT1G01250	0.423
AT1G71030	0.417
AT5G62020	0.417
AT4G36930	0.416
AT4G22250	0.416
AT3G46600	0.411
AT1G80920	0.407
ATMG01390	0.406
AT4G34760	0.404
AT2G24150	0.404
AT1G27660	0.403
AT2G46530	0.401
AT3G26510	0.397
AT1G69580	0.396
AT4G38215	0.394
AT5G55620	0.393
AT2G28470	0.392
AT2G03760	0.392
AT5G28640	0.386
AT1G03170	0.384
AT5G65310	0.384
AT4G23870	0.382
AT4G24150	0.379
AT2G18193	0.374
AT4G01610	0.373
AT4G20320	0.368
AT4G31550	0.367
AT3G54430	0.363
AT4G00180	0.361
AT2G23120	0.361
AT2G28900	0.361
AT2G42870	0.36
AT3G16330	0.358
AT1G78610	0.354
AT4G35070	0.354
AT2G22680	0.354
AT5G47720	0.353
AT4G39010	0.347
AT5G65110	0.343
AT2G01570	0.342
AT2G46950	0.342
AT5G67600	0.341
AT3G60530	0.337
AT4G02100	0.336
AT2G34710	0.336
AT1G12860	0.333
AT4G38210	0.333
AT4G37870	0.332
AT4G09020	0.332
AT2G45160	0.33
AT5G02260	0.329
AT5G56530	0.328
AT4G08950	0.328
AT5G47640	0.326
AT2G40330	0.324
AT4G26760	0.324
AT4G17880	0.322
AT3G63450	0.321
AT2G06850	0.319
AT5G21482	0.319
AT2G40820	0.318
AT1G04240	0.318
AT2G42790	0.314
AT1G67750	0.314
AT3G08030	0.313
AT5G44730	0.307
AT2G44500	0.307
AT2G45720	0.306
AT4G20430	0.306
AT4G28240	0.305
AT2G45750	0.304
AT5G51850	0.303
AT1G09960	0.303
AT1G80280	0.302
AT1G70710	0.302
AT5G67360	0.3
AT1G70470	0.3
AT1G68780	0.3
AT3G15020	0.3
AT3G15680	0.299
AT5G63530	0.299
AT4G36970	0.297
AT3G15350	0.295
AT2G32710	0.293
AT5G02380	0.29
AT4G24960	0.29
AT5G46710	0.29
AT5G02370	0.286
AT3G01800	0.286
AT1G77660	0.284
AT3G02050	0.284
AT1G12780	0.284
AT5G17640	0.282
AT2G07680	0.277
AT5G60200	0.276
AT4G14270	0.276
AT2G21050	0.274
AT3G21750	0.274
AT1G28440	0.271
AT5G48500	0.27
AT1G67830	0.265
AT1G27210	0.265
AT1G20620	0.264
AT2G34170	0.264
AT3G10985	0.263
AT1G80940	0.262
AT4G27570	0.262
AT1G22160	0.262
AT5G46180	0.261
AT4G28100	0.261
AT3G14230	0.259
AT4G19160	0.257
AT1G17200	0.257
AT1G66180	0.256
AT1G21090	0.256
AT4G11130	0.25
AT1G25440	0.249
AT5G25280	0.249
AT1G08630	0.249
AT4G00355	0.248
AT4G27730	0.247
AT2G46920	0.247
AT5G63650	0.246
AT2G32560	0.246
AT5G12950	0.246
AT2G28510	0.239
AT3G25710	0.239
AT1G32240	0.237
AT5G04510	0.237
AT2G18230	0.236
AT3G54220	0.234
AT3G21755	0.232
AT5G54770	0.23
AT4G03415	0.23
AT1G11670	0.229
AT2G19090	0.228
AT3G21760	0.227
AT3G61830	0.226
AT5G66920	0.226
AT1G68560	0.226
AT5G65020	0.221
AT2G19810	0.219
AT3G56880	0.218
AT1G63480	0.214
AT4G14740	0.213
AT3G14220	0.212
AT3G54400	0.211
AT3G09070	0.211
AT3G13690	0.209
AT1G29980	0.207
AT3G20820	0.206
AT3G61070	0.206
AT1G78380	0.201
AT4G00820	0.2
AT5G04885	0.2
AT3G26810	0.198
AT5G66560	0.194
AT5G43830	0.193
AT5G66558	0.193
AT1G14440	0.19
AT1G21880	0.19
AT4G39260	0.19
AT4G38740	0.187
AT5G67130	0.184
AT2G43800	0.184
AT5G08590	0.183
AT5G67070	0.183
AT1G14920	0.182
AT5G62390	0.162
AT5G43940	0.157
AT4G30190	-0.16
AT2G43550	-0.191
AT5G10290	-0.191
AT5G08000	-0.192
AT1G78580	-0.198
AT1G72600	-0.199
AT1G72610	-0.2
AT2G38995	-0.205
AT1G75820	-0.205
AT4G15545	-0.214
AT5G45960	-0.215
AT1G70410	-0.216
AT2G39510	-0.222
AT4G16146	-0.222
AT2G40550	-0.223
AT3G53140	-0.224
AT1G10640	-0.226
AT5G21100	-0.228
AT4G13770	-0.231
AT2G33170	-0.238
AT1G74950	-0.239
AT4G16980	-0.239
AT4G27820	-0.24
AT1G07720	-0.241
AT1G64060	-0.241
AT3G55110	-0.242
AT2G39010	-0.243
AT5G65280	-0.243
AT5G02940	-0.244
AT4G21650	-0.245
AT1G44800	-0.248
AT5G50160	-0.248
AT1G14350	-0.255
AT2G22420	-0.256
AT2G36590	-0.257
AT5G09220	-0.258
AT5G57180	-0.26
AT3G17120	-0.26
AT2G33380	-0.261
AT1G77760	-0.261
AT2G46810	-0.266
AT1G54820	-0.266
AT1G06000	-0.266
AT5G01630	-0.271
AT4G24670	-0.272
AT1G31550	-0.275
AT4G38770	-0.277
AT4G24450	-0.279
AT4G32980	-0.281
AT4G21910	-0.282
AT3G51450	-0.283
AT4G27560	-0.285
AT1G51760	-0.285
AT5G28300	-0.288
AT5G52320	-0.289
AT2G38750	-0.291
AT3G50440	-0.292
AT2G25810	-0.293
AT4G23990	-0.294
AT3G21560	-0.294
AT1G67870	-0.296
AT5G40140	-0.296
AT5G47800	-0.297
AT5G47910	-0.298
AT4G22200	-0.3
AT2G46650	-0.3
AT1G67050	-0.302
AT5G16030	-0.304
AT2G46980	-0.305
AT1G52400	-0.307
AT1G17420	-0.308
AT2G20610	-0.31
AT1G19570	-0.317
AT5G12270	-0.321
AT4G15480	-0.324
AT5G40450	-0.326
AT5G15780	-0.328
AT1G74420	-0.33
AT2G18328	-0.332
AT4G31500	-0.333
AT3G52500	-0.333
AT1G69870	-0.335
AT1G03920	-0.341
AT1G72180	-0.342
AT4G15160	-0.347
AT1G26450	-0.347
AT4G30250	-0.352
AT2G44940	-0.352
AT1G52700	-0.354
AT1G20510	-0.357
AT5G17030	-0.358
AT5G38120	-0.359
AT3G12143	-0.36
AT4G39940	-0.362
AT5G42650	-0.363
AT1G68740	-0.367
AT3G14395	-0.368
AT1G10682	-0.372
AT2G45870	-0.372
AT3G15650	-0.372
AT3G23430	-0.373
AT2G16990	-0.376
AT1G53160	-0.376
AT2G36970	-0.379
AT1G19670	-0.379
AT4G01080	-0.384
AT1G23090	-0.385
AT1G09970	-0.393
AT5G10170	-0.393
AT5G10300	-0.394
AT1G13700	-0.404
AT1G44350	-0.404
AT3G45140	-0.408
AT4G03400	-0.41
AT5G50915	-0.421
AT1G24070	-0.428
AT4G25480	-0.439
AT4G08870	-0.439
AT5G52310	-0.446
AT5G22090	-0.446
AT1G52030	-0.45
AT1G52410	-0.451
AT2G39850	-0.452
AT4G00780	-0.455
AT4G39950	-0.466
AT1G49520	-0.467
AT3G10870	-0.467
AT3G50280	-0.468
AT5G24420	-0.471
AT2G32100	-0.483
AT3G16470	-0.483
AT1G44542	-0.484
AT3G13640	-0.486
AT5G24770	-0.49
AT4G12030	-0.491
AT5G13220	-0.492
AT1G80050	-0.492
AT4G37410	-0.494
AT4G37409	-0.494
AT2G32530	-0.496
AT1G19050	-0.497
AT4G36570	-0.499
AT5G24910	-0.499
AT3G28220	-0.501
AT1G61370	-0.503
AT4G37520	-0.508
AT2G43620	-0.51
AT3G27810	-0.51
AT3G10760	-0.512
AT2G32150	-0.515
AT1G80760	-0.526
AT1G68170	-0.527
AT2G43150	-0.527
AT3G05650	-0.528
AT1G72520	-0.529
AT1G52040	-0.532
AT1G03420	-0.534
AT1G70700	-0.537
AT2G16740	-0.538
AT5G28237	-0.541
AT5G53486	-0.541
AT1G19180	-0.542
AT3G47400	-0.544
AT1G02065	-0.548
AT1G54020	-0.551
AT2G39710	-0.553
AT2G47750	-0.553
AT1G71960	-0.556
AT1G78970	-0.561
AT2G28140	-0.574
AT2G18196	-0.577
AT3G22142	-0.578
AT1G61130	-0.588
AT1G77990	-0.593
AT1G49230	-0.598
AT5G61660	-0.603
AT1G11080	-0.604
AT1G72450	-0.605
AT2G24210	-0.606
AT3G27809	-0.607
AT2G21100	-0.61
AT1G06620	-0.612
AT3G50970	-0.616
AT2G22330	-0.636
AT4G36950	-0.643
AT3G15990	-0.661
AT4G30450	-0.665
AT2G27220	-0.666
AT1G61810	-0.679
AT4G27170	-0.684
AT2G30540	-0.689
AT5G37600	-0.69
AT4G16590	-0.709
AT4G16740	-0.71
AT1G58460	-0.71
AT2G47880	-0.731
AT1G77992	-0.736
AT4G11190	-0.742
AT2G18969	-0.744
AT2G29710	-0.746
AT2G18970	-0.752
AT1G12260	-0.753
AT1G52000	-0.753
AT3G12440	-0.754
AT1G77690	-0.766
AT3G02500	-0.767
AT5G42500	-0.776
AT5G40348	-0.78
AT1G17380	-0.787
AT5G05600	-0.791
AT1G02460	-0.83
AT5G24150	-0.835
AT2G39330	-0.85
AT4G13410	-0.854
AT4G30460	-0.896
AT2G34600	-0.93
AT4G02810	-0.946
AT3G59270	-0.963
AT5G33382	-0.993
AT5G59780	-1.036
AT2G26695	-1.048
AT3G22275	-1.07
AT2G47180	-1.095
AT3G11680	-1.13
AT3G44560	-1.142
AT5G06650	-1.181
AT4G36820	-1.192
AT5G39100	-1.261
AT3G18777	-1.376
AT3G48340	-1.72
AT2G44578	-2.082
AT5G43650	-2.16
AT5G39090	-2.527
AT4G27140	-5.551
