AT5G66780	3.146
AT1G73120	2.727
AT3G25810	2.014
AT3G13404	1.863
AT2G31920	1.572
AT4G35770	1.357
AT1G48660	1.292
AT1G06100	1.254
AT4G03965	1.236
AT1G56680	1.232
AT5G43935	1.224
AT1G26680	1.22
AT4G28720	1.213
AT2G20670	1.119
AT5G59130	1.044
AT4G38310	1.027
AT1G25530	0.986
AT1G29270	0.985
AT3G03170	0.98
AT3G05190	0.958
AT1G08500	0.937
AT3G18280	0.934
AT1G49475	0.929
AT3G16300	0.929
AT1G78700	0.914
AT5G19520	0.914
AT1G66390	0.905
AT1G28330	0.841
AT5G21940	0.834
AT4G23410	0.821
AT1G78710	0.815
AT2G33330	0.777
AT3G24810	0.777
AT5G18670	0.75
AT1G12320	0.734
AT2G47780	0.712
AT2G32280	0.703
AT4G10770	0.699
AT3G21720	0.691
AT5G22310	0.657
AT5G04230	0.648
AT5G65590	0.646
AT1G23000	0.644
AT2G42885	0.632
AT3G02410	0.624
AT2G27190	0.623
AT1G79420	0.622
AT1G05680	0.613
AT1G62500	0.608
AT3G42670	0.606
AT4G32480	0.592
AT5G25490	0.584
AT1G67360	0.583
AT1G53070	0.583
AT3G52490	0.55
AT2G45900	0.538
AT2G23180	0.537
AT1G17190	0.536
AT1G28070	0.534
AT1G48330	0.533
AT3G12730	0.526
AT1G62290	0.521
AT4G01700	0.511
AT1G55850	0.508
AT3G02550	0.506
AT1G61680	0.504
AT3G23580	0.5
AT5G60680	0.494
AT2G01940	0.492
AT3G23730	0.489
AT5G41080	0.476
AT1G64450	0.475
AT2G01210	0.47
AT5G37790	0.454
AT2G25900	0.453
AT2G47000	0.453
AT5G14450	0.453
AT1G21460	0.45
AT5G61440	0.448
AT4G36040	0.445
AT2G25790	0.439
AT2G20515	0.439
AT1G70560	0.439
AT1G63800	0.436
AT3G57010	0.436
AT4G24240	0.43
AT5G13290	0.424
AT5G66600	0.417
AT1G22490	0.416
AT4G36930	0.414
AT1G03170	0.414
AT1G18740	0.414
AT3G16330	0.413
AT1G01620	0.411
AT2G36800	0.41
AT1G27660	0.407
AT4G03210	0.401
AT5G28640	0.398
AT1G01250	0.397
AT3G18900	0.396
AT5G65310	0.394
AT4G35090	0.393
AT2G24150	0.392
AT4G23870	0.388
AT2G23120	0.385
AT4G20320	0.383
AT3G54430	0.378
AT2G28470	0.377
AT4G31550	0.377
AT1G69580	0.373
AT2G28900	0.373
AT2G46530	0.371
AT4G00180	0.369
AT1G78610	0.368
AT5G67600	0.368
AT4G01610	0.367
AT1G12860	0.36
AT4G37870	0.358
AT4G09020	0.356
AT5G65110	0.354
AT3G22370	0.349
AT4G26760	0.348
AT2G22680	0.346
AT2G21640	0.342
AT2G34710	0.341
AT3G26510	0.339
AT5G63530	0.338
AT1G80920	0.337
AT3G63450	0.332
AT2G01570	0.33
AT2G32710	0.326
AT4G02100	0.325
AT1G80280	0.322
AT3G60530	0.319
AT3G08030	0.318
AT5G47720	0.317
AT5G21482	0.313
AT5G56530	0.309
AT2G46950	0.307
AT1G67750	0.305
AT1G68780	0.305
AT3G02050	0.304
AT2G45160	0.304
AT2G42790	0.303
AT2G07680	0.299
AT1G77660	0.298
AT3G15020	0.298
AT4G20430	0.293
AT4G08950	0.292
AT2G06850	0.292
AT3G15350	0.291
AT5G02380	0.291
AT1G70710	0.291
AT5G67360	0.29
AT5G02370	0.287
AT5G47640	0.287
AT3G10985	0.281
AT4G36970	0.276
AT5G44730	0.274
AT4G27570	0.273
AT1G28440	0.272
AT1G27210	0.265
AT4G24960	0.264
AT3G15680	0.262
AT3G21750	0.261
AT1G12780	0.26
AT1G21090	0.259
AT3G14230	0.256
AT1G67830	0.255
AT4G28100	0.255
AT1G66180	0.249
AT2G46920	0.249
AT1G20620	0.249
AT2G21050	0.248
AT3G13690	0.243
AT4G19160	0.243
AT2G18230	0.241
AT5G04510	0.24
AT5G46180	0.237
AT1G68560	0.226
AT5G65020	0.222
AT3G21755	0.221
AT5G25280	0.22
AT5G57130	0.22
AT1G63480	0.22
AT5G54770	0.212
AT1G14440	0.208
AT1G21880	0.205
AT2G43800	0.203
AT5G04885	0.201
AT5G08000	-0.201
AT2G43550	-0.215
AT2G39510	-0.223
AT4G13770	-0.235
AT1G50310	-0.241
AT1G62480	-0.244
AT4G15545	-0.246
AT4G16267	-0.246
AT4G38770	-0.247
AT5G45960	-0.248
AT2G33380	-0.251
AT1G14350	-0.251
AT5G28300	-0.254
AT4G21910	-0.256
AT2G39010	-0.257
AT5G57180	-0.259
AT1G06002	-0.263
AT1G06000	-0.266
AT4G26530	-0.268
AT3G51450	-0.268
AT5G03350	-0.269
AT2G25810	-0.27
AT5G02940	-0.275
AT5G47910	-0.278
AT4G27560	-0.28
AT1G74950	-0.282
AT4G24670	-0.283
AT5G14740	-0.285
AT1G52400	-0.289
AT1G31550	-0.29
AT2G22420	-0.293
AT1G51760	-0.294
AT4G16980	-0.294
AT2G20610	-0.297
AT4G23990	-0.3
AT4G31500	-0.307
AT5G12270	-0.307
AT2G17730	-0.308
AT4G22200	-0.311
AT4G30250	-0.312
AT5G16030	-0.32
AT3G52500	-0.323
AT1G69870	-0.325
AT4G39940	-0.326
AT5G40450	-0.326
AT4G21650	-0.327
AT5G52320	-0.329
AT2G46650	-0.33
AT2G18328	-0.332
AT5G15780	-0.332
AT5G42650	-0.333
AT5G24780	-0.334
AT4G15480	-0.338
AT5G38120	-0.342
AT1G72180	-0.358
AT2G38750	-0.361
AT1G09970	-0.363
AT1G68740	-0.364
AT3G23430	-0.366
AT2G44940	-0.366
AT1G20510	-0.368
AT2G45870	-0.369
AT5G22090	-0.377
AT1G23090	-0.383
AT4G01080	-0.383
AT5G10170	-0.39
AT5G52310	-0.391
AT3G12143	-0.392
AT1G10682	-0.393
AT3G14395	-0.397
AT5G17030	-0.402
AT3G45140	-0.406
AT5G50915	-0.412
AT4G03400	-0.422
AT1G19670	-0.422
AT1G52030	-0.425
AT1G24070	-0.431
AT1G53160	-0.434
AT1G52410	-0.435
AT4G00780	-0.439
AT4G08870	-0.441
AT5G13220	-0.443
AT2G43150	-0.443
AT1G80050	-0.445
AT1G44350	-0.454
AT3G05650	-0.456
AT3G10870	-0.459
AT3G10760	-0.468
AT4G36570	-0.475
AT3G50280	-0.478
AT5G24420	-0.48
AT1G54020	-0.482
AT4G12030	-0.482
AT1G19050	-0.483
AT3G16470	-0.486
AT1G19180	-0.494
AT3G28220	-0.505
AT3G27810	-0.51
AT3G13640	-0.517
AT1G52040	-0.518
AT3G22142	-0.518
AT3G50970	-0.519
AT1G72520	-0.524
AT4G37520	-0.526
AT2G47750	-0.532
AT2G32150	-0.538
AT1G02065	-0.539
AT1G06620	-0.546
AT1G71960	-0.552
AT5G61660	-0.564
AT1G77990	-0.571
AT1G70700	-0.572
AT5G28237	-0.572
AT5G24770	-0.575
AT3G27809	-0.578
AT1G72450	-0.583
AT1G78970	-0.614
AT2G22330	-0.615
AT3G02500	-0.652
AT4G10290	-0.66
AT4G11190	-0.661
AT5G37600	-0.667
AT2G24210	-0.67
AT2G18969	-0.696
AT2G18970	-0.702
AT4G30450	-0.709
AT1G52000	-0.725
AT2G30540	-0.728
AT4G36950	-0.732
AT4G16590	-0.735
AT5G42500	-0.752
AT1G17380	-0.761
AT1G02460	-0.762
AT5G40348	-0.766
AT1G77690	-0.783
AT4G16740	-0.791
AT2G39330	-0.802
AT5G05600	-0.834
AT1G58460	-0.836
AT5G24150	-0.853
AT4G13410	-0.859
AT4G30460	-0.914
AT2G26695	-0.924
AT3G59270	-0.935
AT5G33382	-1.039
AT3G11680	-1.051
AT2G34600	-1.069
AT2G47180	-1.106
AT3G22275	-1.175
AT5G59780	-1.212
AT5G48850	-1.555
AT2G44578	-1.806
AT5G43650	-2.535
