AT1G12010	2.42
AT4G33420	1.322
AT4G35770	1.007
AT1G13245	0.938
AT1G26800	0.794
AT1G05680	0.743
AT5G21940	0.739
AT5G59130	0.734
AT2G20670	0.698
AT1G48660	0.686
AT1G78700	0.632
AT1G78710	0.629
AT2G32280	0.604
AT3G02550	0.589
AT1G28330	0.532
AT1G12320	0.53
AT2G40330	0.52
AT5G56550	0.519
AT1G25530	0.508
AT5G19120	0.506
AT1G28070	0.498
AT4G17870	0.474
AT2G20515	0.465
AT5G04230	0.464
AT3G57010	0.458
AT2G28870	0.453
AT2G34930	0.45
AT3G10020	0.446
AT2G27190	0.413
AT4G36040	0.412
AT2G45900	0.409
AT3G59940	0.405
AT3G47800	0.403
AT1G06360	0.402
AT5G60680	0.4
AT1G78850	0.396
AT3G18280	0.395
AT1G12780	0.395
AT2G15890	0.392
AT2G25900	0.388
AT1G64450	0.384
AT4G05070	0.371
AT1G80920	0.348
AT2G44130	0.346
AT1G66180	0.345
AT4G14270	0.338
AT5G61440	0.331
AT1G21460	0.327
AT2G29670	0.322
AT4G27730	0.313
AT1G55850	0.306
AT2G41990	0.303
AT3G23730	0.302
AT1G23390	0.291
AT1G55020	0.287
AT4G03210	0.283
AT3G26740	0.282
AT5G02230	0.28
AT2G38230	0.28
AT4G00355	0.277
AT2G32710	0.261
AT1G25440	0.256
AT3G23580	0.256
AT5G25280	0.233
AT1G53160	-0.227
AT4G03400	-0.256
AT2G23170	-0.263
AT2G39130	-0.264
AT4G32920	-0.266
AT1G72180	-0.272
AT5G59370	-0.276
AT2G36590	-0.279
AT4G39110	-0.285
AT1G01120	-0.288
AT5G61420	-0.288
AT2G47030	-0.301
AT3G52500	-0.302
AT4G32510	-0.305
AT1G48470	-0.309
AT1G13710	-0.312
AT1G02930	-0.317
AT3G46520	-0.318
AT2G19330	-0.324
AT2G36660	-0.329
AT5G26700	-0.33
AT2G16630	-0.332
AT5G01210	-0.344
AT5G01215	-0.344
AT3G09440	-0.346
AT1G11440	-0.354
AT1G04880	-0.358
AT3G51490	-0.358
AT5G13990	-0.361
AT5G09550	-0.361
AT3G14940	-0.366
AT3G25560	-0.366
AT5G15070	-0.367
AT1G02065	-0.373
AT3G22410	-0.382
AT4G38190	-0.384
AT3G18360	-0.384
AT1G68750	-0.385
AT4G15200	-0.385
AT4G24580	-0.392
AT1G04540	-0.393
AT1G22760	-0.407
AT3G62230	-0.408
AT4G31370	-0.41
AT1G04470	-0.41
AT5G03620	-0.413
AT2G37180	-0.418
AT3G14395	-0.422
AT3G50280	-0.431
AT5G57320	-0.436
AT1G70940	-0.443
AT2G39980	-0.45
AT2G38470	-0.465
AT4G24860	-0.465
AT3G23270	-0.472
AT4G08630	-0.476
AT4G21895	-0.48
AT1G54560	-0.487
AT3G60920	-0.487
AT3G05640	-0.488
AT5G50915	-0.492
AT4G33050	-0.516
AT2G37170	-0.519
AT1G51420	-0.522
AT3G09450	-0.528
AT4G04450	-0.555
AT2G44940	-0.562
AT2G38750	-0.562
AT4G14368	-0.578
AT2G20880	-0.622
AT5G59580	-0.689
AT5G46380	-0.698
AT1G50810	-0.728
AT2G16060	-0.742
AT4G10290	-0.785
AT2G42560	-5.073
