AT4G33420	1.433
AT1G13245	0.953
AT1G05680	0.792
AT5G59130	0.745
AT1G78700	0.689
AT1G78710	0.649
AT4G03510	0.636
AT4G32480	0.61
AT3G02550	0.608
AT4G17870	0.58
AT1G12320	0.556
AT2G40330	0.55
AT5G04230	0.526
AT2G34930	0.479
AT1G25530	0.477
AT2G27190	0.428
AT1G64450	0.414
AT4G27730	0.369
AT1G62180	-0.368
AT3G25560	-0.384
AT2G44940	-0.565
AT4G10290	-0.832
AT4G28140	-1.077
